spi-slave/Verilog/sim/dump.vcd
$date
	Mon Dec 13 16:52:40 2021
$end
$version
	Icarus Verilog
$end
$timescale
	1ps
$end
$scope module SPI_Master_TB $end
$var wire 1 ! w_Slave_Rx_DV $end
$var wire 8 " w_Slave_RX_Byte [7:0] $end
$var wire 1 # w_SPI_MOSI $end
$var wire 1 $ w_SPI_MISO $end
$var wire 1 % w_SPI_Clk $end
$var wire 1 & w_Master_TX_Ready $end
$var wire 1 ' r_Master_RX_DV $end
$var wire 8 ( r_Master_RX_Byte [7:0] $end
$var reg 1 ) r_CS $end
$var reg 1 * r_Clk $end
$var reg 8 + r_Master_TX_Byte [7:0] $end
$var reg 1 , r_Master_TX_DV $end
$var reg 1 - r_Rst_L $end
$var reg 8 . r_Slave_TX_Byte [7:0] $end
$var reg 1 / r_Slave_TX_DV $end
$scope module SPI_Master_UUT $end
$var wire 1 * i_Clk $end
$var wire 1 - i_Rst_L $end
$var wire 8 0 i_TX_Byte [7:0] $end
$var wire 1 , i_TX_DV $end
$var wire 1 1 w_CPHA $end
$var wire 1 2 w_CPOL $end
$var wire 1 $ i_SPI_MISO $end
$var reg 8 3 o_RX_Byte [7:0] $end
$var reg 1 ' o_RX_DV $end
$var reg 1 % o_SPI_Clk $end
$var reg 1 # o_SPI_MOSI $end
$var reg 1 & o_TX_Ready $end
$var reg 1 4 r_Leading_Edge $end
$var reg 3 5 r_RX_Bit_Count [2:0] $end
$var reg 1 6 r_SPI_Clk $end
$var reg 3 7 r_SPI_Clk_Count [2:0] $end
$var reg 5 8 r_SPI_Clk_Edges [4:0] $end
$var reg 3 9 r_TX_Bit_Count [2:0] $end
$var reg 8 : r_TX_Byte [7:0] $end
$var reg 1 ; r_TX_DV $end
$var reg 1 < r_Trailing_Edge $end
$upscope $end
$scope module SPI_Slave_UUT $end
$var wire 1 = CS_start $end
$var wire 1 ! Rx_DV $end
$var wire 1 ) SPI_CS $end
$var wire 1 % SPI_Clk $end
$var wire 1 # SPI_MOSI $end
$var wire 8 > Tx_Byte [7:0] $end
$var wire 1 / Tx_DV $end
$var wire 1 * clk $end
$var wire 1 ? load_tx_data $end
$var wire 1 - resetn $end
$var wire 1 $ SPI_MISO $end
$var reg 8 @ Rx_Byte [7:0] $end
$var reg 8 A Rx_byte_temp [7:0] $end
$var reg 3 B Rx_count [2:0] $end
$var reg 1 C Rx_ready $end
$var reg 1 D Rx_ready_sync $end
$var reg 1 E SPI_CS_del $end
$var reg 1 F SPI_CS_mt $end
$var reg 1 G SPI_CS_st $end
$var reg 1 H SPI_Clk_mt $end
$var reg 1 I SPI_Clk_st $end
$var reg 1 J SPI_MOSI_mt $end
$var reg 1 K SPI_MOSI_st $end
$var reg 8 L Tx_Byte_temp [7:0] $end
$var reg 1 M Tx_DV_aux $end
$upscope $end
$scope task SendSingleByte $end
$var reg 8 N data [7:0] $end
$upscope $end
$scope task SendSlaveByte $end
$var reg 8 O data [7:0] $end
$upscope $end
$scope task SendTwoByte $end
$var reg 8 P data [7:0] $end
$var reg 8 Q data2 [7:0] $end
$upscope $end
$upscope $end
$enddefinitions $end
#0
$dumpvars
bx Q
bx P
bx O
bx N
xM
bx L
xK
xJ
xI
xH
xG
xF
xE
xD
xC
bx B
bx A
bx @
x?
bx >
0=
0<
0;
b0 :
b111 9
b0 8
b0 7
06
b111 5
04
b0 3
02
01
b0 0
0/
bx .
0-
0,
b0 +
0*
1)
b0 (
0'
0&
0%
x$
0#
bx "
x!
$end
#20000
0?
0M
0J
0H
1F
0D
1*
#40000
0*
#60000
bx0 L
0K
0I
1G
1*
#80000
0*
#100000
1E
1*
#120000
0*
#140000
1*
#160000
0*
#180000
1*
#200000
0*
#220000
1*
#240000
0*
#260000
1*
#280000
0*
#300000
1*
#320000
0*
#340000
1*
#360000
0*
#380000
1-
1*
#400000
0*
#420000
1&
xD
b11000001 N
1*
#440000
0*
#441000
b1010100 .
b1010100 >
b110011 O
0)
#460000
0F
1,
b11000001 +
b11000001 0
1*
#480000
0*
#500000
0$
0!
b1010100 L
0C
b0 B
1?
1=
b11000001 :
1;
b10000 8
0&
0,
0G
1*
#520000
0*
#540000
0?
0=
b1 7
0;
b110 9
1#
0D
0E
1*
#560000
0*
#580000
b10 7
1J
1*
#600000
0*
#620000
b11 7
1K
1*
#640000
0*
#660000
16
b100 7
14
b1111 8
1*
#680000
0*
#700000
b101 7
04
b110 5
1%
1*
#720000
0*
#740000
b110 7
1H
1*
#760000
0*
#780000
bx1 A
b1 B
b111 7
1I
1*
#800000
0*
#820000
06
b0 7
1<
b1110 8
1*
#840000
0*
#860000
b1 7
0<
b101 9
0%
1*
#880000
0*
#900000
b10 7
0H
1*
#920000
0*
#940000
1$
b10101000 L
b11 7
0I
1*
#960000
0*
#980000
16
b100 7
14
b1101 8
1*
#1000000
0*
#1020000
b101 7
04
b101 5
b1000000 (
b1000000 3
1%
1*
#1040000
0*
#1060000
b110 7
1H
1*
#1080000
0*
#1100000
bx11 A
b10 B
b111 7
1I
1*
#1120000
0*
#1140000
06
b0 7
1<
b1100 8
1*
#1160000
0*
#1180000
b1 7
0<
0#
b100 9
0%
1*
#1200000
0*
#1220000
b10 7
0J
0H
1*
#1240000
0*
#1260000
0$
b1010000 L
b11 7
0K
0I
1*
#1280000
0*
#1300000
16
b100 7
14
b1011 8
1*
#1320000
0*
#1340000
b101 7
04
b100 5
1%
1*
#1360000
0*
#1380000
b110 7
1H
1*
#1400000
0*
#1420000
bx110 A
b11 B
b111 7
1I
1*
#1440000
0*
#1460000
06
b0 7
1<
b1010 8
1*
#1480000
0*
#1500000
b1 7
0<
b11 9
0%
1*
#1520000
0*
#1540000
b10 7
0H
1*
#1560000
0*
#1580000
1$
b10100000 L
b11 7
0I
1*
#1600000
0*
#1620000
16
b100 7
14
b1001 8
1*
#1640000
0*
#1660000
b101 7
04
b11 5
b1010000 (
b1010000 3
1%
1*
#1680000
0*
#1700000
b110 7
1H
1*
#1720000
0*
#1740000
bx1100 A
b100 B
b111 7
1I
1*
#1760000
0*
#1780000
06
b0 7
1<
b1000 8
1*
#1800000
0*
#1820000
b1 7
0<
b10 9
0%
1*
#1840000
0*
#1860000
b10 7
0H
1*
#1880000
0*
#1900000
0$
b1000000 L
b11 7
0I
1*
#1920000
0*
#1940000
16
b100 7
14
b111 8
1*
#1960000
0*
#1980000
b101 7
04
b10 5
1%
1*
#2000000
0*
#2020000
b110 7
1H
1*
#2040000
0*
#2060000
bx11000 A
b101 B
b111 7
1I
1*
#2080000
0*
#2100000
06
b0 7
1<
b110 8
1*
#2120000
0*
#2140000
b1 7
0<
b1 9
0%
1*
#2160000
0*
#2180000
b10 7
0H
1*
#2200000
0*
#2220000
1$
b10000000 L
b11 7
0I
1*
#2240000
0*
#2260000
16
b100 7
14
b101 8
1*
#2280000
0*
#2300000
b101 7
04
b1 5
b1010100 (
b1010100 3
1%
1*
#2320000
0*
#2340000
b110 7
1H
1*
#2360000
0*
#2380000
bx110000 A
b110 B
b111 7
1I
1*
#2400000
0*
#2420000
06
b0 7
1<
b100 8
1*
#2440000
0*
#2460000
b1 7
0<
b0 9
0%
1*
#2480000
0*
#2500000
b10 7
0H
1*
#2520000
0*
#2540000
0$
b0 L
b11 7
0I
1*
#2560000
0*
#2580000
16
b100 7
14
b11 8
1*
#2600000
0*
#2620000
b101 7
04
b0 5
1%
1*
#2640000
0*
#2660000
b110 7
1H
1*
#2680000
0*
#2700000
bx1100000 A
b111 B
b111 7
1I
1*
#2720000
0*
#2740000
06
b0 7
1<
b10 8
1*
#2760000
0*
#2780000
b1 7
0<
1#
b111 9
0%
1*
#2800000
0*
#2820000
b10 7
1J
0H
1*
#2840000
0*
#2860000
b11 7
1K
0I
1*
#2880000
0*
#2900000
16
b100 7
14
b1 8
1*
#2920000
0*
#2940000
b101 7
04
1'
b111 5
1%
1*
#2960000
0*
#2980000
0'
b110 7
1H
1*
#3000000
0*
#3020000
b110011 .
b110011 >
1/
1!
1C
b11000001 "
b11000001 @
b11000001 A
b0 B
b111 7
1I
1*
#3040000
0*
#3060000
b110011 L
0!
1?
06
b0 7
1<
b0 8
1M
1D
0/
b1000100 O
1*
#3080000
0*
#3100000
1&
0<
b110 9
0%
1*
#3120000
0*
#3140000
b111 9
0H
1F
b10111110 N
1)
1*
#3160000
0*
#3161000
0)
#3180000
0C
0M
1=
0I
1G
0F
1,
b10111110 +
b10111110 0
1*
#3200000
0*
#3220000
b10111110 :
1;
b10000 8
0&
0,
1E
0G
0D
1*
#3240000
0*
#3260000
0?
0=
b1 7
0;
b110 9
0E
1*
#3280000
0*
#3300000
b10 7
1*
#3320000
0*
#3340000
b11 7
1*
#3360000
0*
#3380000
16
b100 7
14
b1111 8
1*
#3400000
0*
#3420000
b101 7
04
b110 5
1%
1*
#3440000
0*
#3460000
b110 7
1H
1*
#3480000
0*
#3500000
b10000011 A
b1 B
b111 7
1I
1*
#3520000
0*
#3540000
06
b0 7
1<
b1110 8
1*
#3560000
0*
#3580000
b1 7
0<
0#
b101 9
0%
1*
#3600000
0*
#3620000
b10 7
0J
0H
1*
#3640000
0*
#3660000
b1100110 L
b11 7
0K
0I
1*
#3680000
0*
#3700000
16
b100 7
14
b1101 8
1*
#3720000
0*
#3740000
b101 7
04
b101 5
b10100 (
b10100 3
1%
1*
#3760000
0*
#3780000
b110 7
1H
1*
#3800000
0*
#3820000
b110 A
b10 B
b111 7
1I
1*
#3840000
0*
#3860000
06
b0 7
1<
b1100 8
1*
#3880000
0*
#3900000
b1 7
0<
1#
b100 9
0%
1*
#3920000
0*
#3940000
b10 7
1J
0H
1*
#3960000
0*
#3980000
1$
b11001100 L
b11 7
1K
0I
1*
#4000000
0*
#4020000
16
b100 7
14
b1011 8
1*
#4040000
0*
#4060000
b101 7
04
b100 5
b110100 (
b110100 3
1%
1*
#4080000
0*
#4100000
b110 7
1H
1*
#4120000
0*
#4140000
b1101 A
b11 B
b111 7
1I
1*
#4160000
0*
#4180000
06
b0 7
1<
b1010 8
1*
#4200000
0*
#4220000
b1 7
0<
b11 9
0%
1*
#4240000
0*
#4260000
b10 7
0H
1*
#4280000
0*
#4300000
b10011000 L
b11 7
0I
1*
#4320000
0*
#4340000
16
b100 7
14
b1001 8
1*
#4360000
0*
#4380000
b101 7
04
b11 5
1%
1*
#4400000
0*
#4420000
b110 7
1H
1*
#4440000
0*
#4460000
b11011 A
b100 B
b111 7
1I
1*
#4480000
0*
#4500000
06
b0 7
1<
b1000 8
1*
#4520000
0*
#4540000
b1 7
0<
b10 9
0%
1*
#4560000
0*
#4580000
b10 7
0H
1*
#4600000
0*
#4620000
0$
b110000 L
b11 7
0I
1*
#4640000
0*
#4660000
16
b100 7
14
b111 8
1*
#4680000
0*
#4700000
b101 7
04
b10 5
1%
1*
#4720000
0*
#4740000
b110 7
1H
1*
#4760000
0*
#4780000
b110111 A
b101 B
b111 7
1I
1*
#4800000
0*
#4820000
06
b0 7
1<
b110 8
1*
#4840000
0*
#4860000
b1 7
0<
b1 9
0%
1*
#4880000
0*
#4900000
b10 7
0H
1*
#4920000
0*
#4940000
b1100000 L
b11 7
0I
1*
#4960000
0*
#4980000
16
b100 7
14
b101 8
1*
#5000000
0*
#5020000
b101 7
04
b1 5
b110000 (
b110000 3
1%
1*
#5040000
0*
#5060000
b110 7
1H
1*
#5080000
0*
#5100000
b1101111 A
b110 B
b111 7
1I
1*
#5120000
0*
#5140000
06
b0 7
1<
b100 8
1*
#5160000
0*
#5180000
b1 7
0<
b0 9
0%
1*
#5200000
0*
#5220000
b10 7
0H
1*
#5240000
0*
#5260000
1$
b11000000 L
b11 7
0I
1*
#5280000
0*
#5300000
16
b100 7
14
b11 8
1*
#5320000
0*
#5340000
b101 7
04
b0 5
b110010 (
b110010 3
1%
1*
#5360000
0*
#5380000
b110 7
1H
1*
#5400000
0*
#5420000
b11011111 A
b111 B
b111 7
1I
1*
#5440000
0*
#5460000
06
b0 7
1<
b10 8
1*
#5480000
0*
#5500000
b1 7
0<
0#
b111 9
0%
1*
#5520000
0*
#5540000
b10 7
0J
0H
1*
#5560000
0*
#5580000
b10000000 L
b11 7
0K
0I
1*
#5600000
0*
#5620000
16
b100 7
14
b1 8
1*
#5640000
0*
#5660000
b101 7
04
1'
b111 5
b110011 (
b110011 3
1%
1*
#5680000
0*
#5700000
0'
b110 7
1H
1*
#5720000
0*
#5740000
b1000100 .
b1000100 >
1/
1!
1C
b10111110 "
b10111110 @
b10111110 A
b0 B
b111 7
1I
1*
#5760000
0*
#5780000
0$
b1000100 L
0!
1?
06
b0 7
1<
b0 8
1M
1D
0/
b1010101 O
1*
#5800000
0*
#5820000
1&
0<
1#
b110 9
0%
1*
#5840000
0*
#5860000
b111 9
1J
0H
1F
b11101111 N
1)
1*
#5880000
0*
#5881000
0)
#5900000
0C
0M
1=
1K
0I
1G
0F
1,
b11101111 +
b11101111 0
1*
#5920000
0*
#5940000
b11101111 :
1;
b10000 8
0&
0,
1E
0G
0D
1*
#5960000
0*
#5980000
0?
0=
b1 7
0;
b110 9
0E
1*
#6000000
0*
#6020000
b10 7
1*
#6040000
0*
#6060000
b11 7
1*
#6080000
0*
#6100000
16
b100 7
14
b1111 8
1*
#6120000
0*
#6140000
b101 7
04
b110 5
1%
1*
#6160000
0*
#6180000
b110 7
1H
1*
#6200000
0*
#6220000
b1111101 A
b1 B
b111 7
1I
1*
#6240000
0*
#6260000
06
b0 7
1<
b1110 8
1*
#6280000
0*
#6300000
b1 7
0<
b101 9
0%
1*
#6320000
0*
#6340000
b10 7
0H
1*
#6360000
0*
#6380000
1$
b10001000 L
b11 7
0I
1*
#6400000
0*
#6420000
16
b100 7
14
b1101 8
1*
#6440000
0*
#6460000
b101 7
04
b101 5
b1110011 (
b1110011 3
1%
1*
#6480000
0*
#6500000
b110 7
1H
1*
#6520000
0*
#6540000
b11111011 A
b10 B
b111 7
1I
1*
#6560000
0*
#6580000
06
b0 7
1<
b1100 8
1*
#6600000
0*
#6620000
b1 7
0<
b100 9
0%
1*
#6640000
0*
#6660000
b10 7
0H
1*
#6680000
0*
#6700000
0$
b10000 L
b11 7
0I
1*
#6720000
0*
#6740000
16
b100 7
14
b1011 8
1*
#6760000
0*
#6780000
b101 7
04
b100 5
b1010011 (
b1010011 3
1%
1*
#6800000
0*
#6820000
b110 7
1H
1*
#6840000
0*
#6860000
b11110111 A
b11 B
b111 7
1I
1*
#6880000
0*
#6900000
06
b0 7
1<
b1010 8
1*
#6920000
0*
#6940000
b1 7
0<
0#
b11 9
0%
1*
#6960000
0*
#6980000
b10 7
0J
0H
1*
#7000000
0*
#7020000
b100000 L
b11 7
0K
0I
1*
#7040000
0*
#7060000
16
b100 7
14
b1001 8
1*
#7080000
0*
#7100000
b101 7
04
b11 5
b1000011 (
b1000011 3
1%
1*
#7120000
0*
#7140000
b110 7
1H
1*
#7160000
0*
#7180000
b11101110 A
b100 B
b111 7
1I
1*
#7200000
0*
#7220000
06
b0 7
1<
b1000 8
1*
#7240000
0*
#7260000
b1 7
0<
1#
b10 9
0%
1*
#7280000
0*
#7300000
b10 7
1J
0H
1*
#7320000
0*
#7340000
b1000000 L
b11 7
1K
0I
1*
#7360000
0*
#7380000
16
b100 7
14
b111 8
1*
#7400000
0*
#7420000
b101 7
04
b10 5
1%
1*
#7440000
0*
#7460000
b110 7
1H
1*
#7480000
0*
#7500000
b11011101 A
b101 B
b111 7
1I
1*
#7520000
0*
#7540000
06
b0 7
1<
b110 8
1*
#7560000
0*
#7580000
b1 7
0<
b1 9
0%
1*
#7600000
0*
#7620000
b10 7
0H
1*
#7640000
0*
#7660000
1$
b10000000 L
b11 7
0I
1*
#7680000
0*
#7700000
16
b100 7
14
b101 8
1*
#7720000
0*
#7740000
b101 7
04
b1 5
b1000111 (
b1000111 3
1%
1*
#7760000
0*
#7780000
b110 7
1H
1*
#7800000
0*
#7820000
b10111011 A
b110 B
b111 7
1I
1*
#7840000
0*
#7860000
06
b0 7
1<
b100 8
1*
#7880000
0*
#7900000
b1 7
0<
b0 9
0%
1*
#7920000
0*
#7940000
b10 7
0H
1*
#7960000
0*
#7980000
0$
b0 L
b11 7
0I
1*
#8000000
0*
#8020000
16
b100 7
14
b11 8
1*
#8040000
0*
#8060000
b101 7
04
b0 5
b1000101 (
b1000101 3
1%
1*
#8080000
0*
#8100000
b110 7
1H
1*
#8120000
0*
#8140000
b1110111 A
b111 B
b111 7
1I
1*
#8160000
0*
#8180000
06
b0 7
1<
b10 8
1*
#8200000
0*
#8220000
b1 7
0<
b111 9
0%
1*
#8240000
0*
#8260000
b10 7
0H
1*
#8280000
0*
#8300000
b11 7
0I
1*
#8320000
0*
#8340000
16
b100 7
14
b1 8
1*
#8360000
0*
#8380000
b101 7
04
1'
b111 5
b1000100 (
b1000100 3
1%
1*
#8400000
0*
#8420000
0'
b110 7
1H
1*
#8440000
0*
#8460000
b1010101 .
b1010101 >
1/
1!
1C
b11101111 "
b11101111 @
b11101111 A
b0 B
b111 7
1I
1*
#8480000
0*
#8500000
b1010101 L
0!
1?
06
b0 7
1<
b0 8
1M
1D
0/
b1100110 O
1*
#8520000
0*
#8540000
1&
0<
b110 9
0%
1*
#8560000
0*
#8580000
b111 9
0H
1F
1)
1*
#8600000
0*
#8620000
0?
0M
0I
1G
1*
#8640000
0*
#8660000
1E
1*
#8680000
0*
#8700000
1*
#8720000
0*
#8740000
1*
#8760000
0*
#8780000
1*
#8800000
0*
#8820000
1*
#8840000
0*
#8860000
1*
#8880000
0*
#8900000
1*
#8920000
0*
#8940000
1*
#8960000
0*
#8980000
1*
#9000000
0*
#9020000
1*
#9040000
0*
#9060000
1*
#9080000
0*
#9100000
1*
#9120000
0*
#9140000
1*
#9160000
0*
#9180000
1*
#9200000
0*
#9220000
1*
#9240000
0*
#9260000
1*
#9280000
0*
#9300000
1*
#9320000
0*
#9340000
1*
#9360000
0*
#9380000
b10111011 Q
b10101010 P
1*
#9400000
0*
#9401000
0)
#9420000
0F
1,
b10101010 +
b10101010 0
1*
#9440000
0*
#9460000
0C
1?
1=
b10101010 :
1;
b10000 8
0&
0,
0G
1*
#9480000
0*
#9500000
0?
0=
b1 7
0;
b110 9
0D
0E
1*
#9520000
0*
#9540000
b10 7
1*
#9560000
0*
#9580000
b11 7
1*
#9600000
0*
#9620000
16
b100 7
14
b1111 8
1*
#9640000
0*
#9660000
b101 7
04
b110 5
1%
1*
#9680000
0*
#9700000
b110 7
1H
1*
#9720000
0*
#9740000
b11011111 A
b1 B
b111 7
1I
1*
#9760000
0*
#9780000
06
b0 7
1<
b1110 8
1*
#9800000
0*
#9820000
b1 7
0<
0#
b101 9
0%
1*
#9840000
0*
#9860000
b10 7
0J
0H
1*
#9880000
0*
#9900000
1$
b10101010 L
b11 7
0K
0I
1*
#9920000
0*
#9940000
16
b100 7
14
b1101 8
1*
#9960000
0*
#9980000
b101 7
04
b101 5
1%
1*
#10000000
0*
#10020000
b110 7
1H
1*
#10040000
0*
#10060000
b10111110 A
b10 B
b111 7
1I
1*
#10080000
0*
#10100000
06
b0 7
1<
b1100 8
1*
#10120000
0*
#10140000
b1 7
0<
1#
b100 9
0%
1*
#10160000
0*
#10180000
b10 7
1J
0H
1*
#10200000
0*
#10220000
0$
b1010100 L
b11 7
1K
0I
1*
#10240000
0*
#10260000
16
b100 7
14
b1011 8
1*
#10280000
0*
#10300000
b101 7
04
b100 5
1%
1*
#10320000
0*
#10340000
b110 7
1H
1*
#10360000
0*
#10380000
b1111101 A
b11 B
b111 7
1I
1*
#10400000
0*
#10420000
06
b0 7
1<
b1010 8
1*
#10440000
0*
#10460000
b1 7
0<
0#
b11 9
0%
1*
#10480000
0*
#10500000
b10 7
0J
0H
1*
#10520000
0*
#10540000
1$
b10101000 L
b11 7
0K
0I
1*
#10560000
0*
#10580000
16
b100 7
14
b1001 8
1*
#10600000
0*
#10620000
b101 7
04
b11 5
b1010100 (
b1010100 3
1%
1*
#10640000
0*
#10660000
b110 7
1H
1*
#10680000
0*
#10700000
b11111010 A
b100 B
b111 7
1I
1*
#10720000
0*
#10740000
06
b0 7
1<
b1000 8
1*
#10760000
0*
#10780000
b1 7
0<
1#
b10 9
0%
1*
#10800000
0*
#10820000
b10 7
1J
0H
1*
#10840000
0*
#10860000
0$
b1010000 L
b11 7
1K
0I
1*
#10880000
0*
#10900000
16
b100 7
14
b111 8
1*
#10920000
0*
#10940000
b101 7
04
b10 5
1%
1*
#10960000
0*
#10980000
b110 7
1H
1*
#11000000
0*
#11020000
b11110101 A
b101 B
b111 7
1I
1*
#11040000
0*
#11060000
06
b0 7
1<
b110 8
1*
#11080000
0*
#11100000
b1 7
0<
0#
b1 9
0%
1*
#11120000
0*
#11140000
b10 7
0J
0H
1*
#11160000
0*
#11180000
1$
b10100000 L
b11 7
0K
0I
1*
#11200000
0*
#11220000
16
b100 7
14
b101 8
1*
#11240000
0*
#11260000
b101 7
04
b1 5
1%
1*
#11280000
0*
#11300000
b110 7
1H
1*
#11320000
0*
#11340000
b11101010 A
b110 B
b111 7
1I
1*
#11360000
0*
#11380000
06
b0 7
1<
b100 8
1*
#11400000
0*
#11420000
b1 7
0<
1#
b0 9
0%
1*
#11440000
0*
#11460000
b10 7
1J
0H
1*
#11480000
0*
#11500000
0$
b1000000 L
b11 7
1K
0I
1*
#11520000
0*
#11540000
16
b100 7
14
b11 8
1*
#11560000
0*
#11580000
b101 7
04
b0 5
1%
1*
#11600000
0*
#11620000
b110 7
1H
1*
#11640000
0*
#11660000
b11010101 A
b111 B
b111 7
1I
1*
#11680000
0*
#11700000
06
b0 7
1<
b10 8
1*
#11720000
0*
#11740000
b1 7
0<
0#
b111 9
0%
1*
#11760000
0*
#11780000
b10 7
0J
0H
1*
#11800000
0*
#11820000
1$
b10000000 L
b11 7
0K
0I
1*
#11840000
0*
#11860000
16
b100 7
14
b1 8
1*
#11880000
0*
#11900000
b101 7
04
1'
b111 5
b1010101 (
b1010101 3
1%
1*
#11920000
0*
#11940000
0'
b110 7
1H
1*
#11960000
0*
#11980000
b1100110 .
b1100110 >
1/
1!
1C
b10101010 "
b10101010 @
b10101010 A
b0 B
b111 7
1I
1*
#12000000
0*
#12020000
0$
b1100110 L
0!
1?
06
b0 7
1<
b0 8
1M
1D
0/
b1110111 O
1*
#12040000
0*
#12060000
1&
0<
1#
b110 9
0%
1*
#12080000
0*
#12100000
b111 9
1J
0H
1,
b10111011 +
b10111011 0
1*
#12120000
0*
#12140000
0?
0M
b10000 8
0&
b10111011 :
1;
0,
1K
0I
1*
#12160000
0*
#12180000
b110 9
0;
b1 7
1*
#12200000
0*
#12220000
b10 7
1*
#12240000
0*
#12260000
b11 7
1*
#12280000
0*
#12300000
16
b100 7
14
b1111 8
1*
#12320000
0*
#12340000
1%
b110 5
b101 7
04
1*
#12360000
0*
#12380000
b110 7
1H
1*
#12400000
0*
#12420000
b1010101 A
b1 B
b111 7
1I
1*
#12440000
0*
#12460000
06
b0 7
1<
b1110 8
1*
#12480000
0*
#12500000
0%
0#
b101 9
b1 7
0<
1*
#12520000
0*
#12540000
b10 7
0J
0H
1*
#12560000
0*
#12580000
1$
b11001100 L
b11 7
0K
0I
1*
#12600000
0*
#12620000
16
b100 7
14
b1101 8
1*
#12640000
0*
#12660000
1%
b101 5
b101 7
04
1*
#12680000
0*
#12700000
b110 7
1H
1*
#12720000
0*
#12740000
0C
b10101010 A
b10 B
b111 7
1I
1*
#12760000
0*
#12780000
06
b0 7
1<
b1100 8
0D
1*
#12800000
0*
#12820000
0%
1#
b100 9
b1 7
0<
1*
#12840000
0*
#12860000
b10 7
1J
0H
1*
#12880000
0*
#12900000
b10011000 L
b11 7
1K
0I
1*
#12920000
0*
#12940000
16
b100 7
14
b1011 8
1*
#12960000
0*
#12980000
1%
b100 5
b1110101 (
b1110101 3
b101 7
04
1*
#13000000
0*
#13020000
b110 7
1H
1*
#13040000
0*
#13060000
b1010101 A
b11 B
b111 7
1I
1*
#13080000
0*
#13100000
06
b0 7
1<
b1010 8
1*
#13120000
0*
#13140000
0%
b11 9
b1 7
0<
1*
#13160000
0*
#13180000
b10 7
0H
1*
#13200000
0*
#13220000
0$
b110000 L
b11 7
0I
1*
#13240000
0*
#13260000
16
b100 7
14
b1001 8
1*
#13280000
0*
#13300000
1%
b11 5
b1100101 (
b1100101 3
b101 7
04
1*
#13320000
0*
#13340000
b110 7
1H
1*
#13360000
0*
#13380000
b10101011 A
b100 B
b111 7
1I
1*
#13400000
0*
#13420000
06
b0 7
1<
b1000 8
1*
#13440000
0*
#13460000
0%
b10 9
b1 7
0<
1*
#13480000
0*
#13500000
b10 7
0H
1*
#13520000
0*
#13540000
b1100000 L
b11 7
0I
1*
#13560000
0*
#13580000
16
b100 7
14
b111 8
1*
#13600000
0*
#13620000
1%
b10 5
b101 7
04
1*
#13640000
0*
#13660000
b110 7
1H
1*
#13680000
0*
#13700000
b1010111 A
b101 B
b111 7
1I
1*
#13720000
0*
#13740000
06
b0 7
1<
b110 8
1*
#13760000
0*
#13780000
0%
0#
b1 9
b1 7
0<
1*
#13800000
0*
#13820000
b10 7
0J
0H
1*
#13840000
0*
#13860000
1$
b11000000 L
b11 7
0K
0I
1*
#13880000
0*
#13900000
16
b100 7
14
b101 8
1*
#13920000
0*
#13940000
1%
b1 5
b101 7
04
1*
#13960000
0*
#13980000
b110 7
1H
1*
#14000000
0*
#14020000
b10101110 A
b110 B
b111 7
1I
1*
#14040000
0*
#14060000
06
b0 7
1<
b100 8
1*
#14080000
0*
#14100000
0%
1#
b0 9
b1 7
0<
1*
#14120000
0*
#14140000
b10 7
1J
0H
1*
#14160000
0*
#14180000
b10000000 L
b11 7
1K
0I
1*
#14200000
0*
#14220000
16
b100 7
14
b11 8
1*
#14240000
0*
#14260000
1%
b0 5
b1100111 (
b1100111 3
b101 7
04
1*
#14280000
0*
#14300000
b110 7
1H
1*
#14320000
0*
#14340000
b1011101 A
b111 B
b111 7
1I
1*
#14360000
0*
#14380000
06
b0 7
1<
b10 8
1*
#14400000
0*
#14420000
0%
b111 9
b1 7
0<
1*
#14440000
0*
#14460000
b10 7
0H
1*
#14480000
0*
#14500000
0$
b0 L
b11 7
0I
1*
#14520000
0*
#14540000
16
b100 7
14
b1 8
1*
#14560000
0*
#14580000
1%
1'
b111 5
b1100110 (
b1100110 3
b101 7
04
1*
#14600000
0*
#14620000
b110 7
0'
1H
1*
#14640000
0*
#14660000
b1110111 .
b1110111 >
1/
1!
1C
b10111011 "
b10111011 @
b10111011 A
b0 B
b111 7
1I
1*
#14680000
0*
#14700000
b1110111 L
0!
1?
06
b0 7
1<
b0 8
1M
1D
0/
b10001000 O
1*
#14720000
0*
#14740000
0%
b110 9
1&
0<
1*
#14760000
0*
#14780000
b111 9
0H
1F
b11011101 Q
b11001100 P
1)
1*
#14800000
0*
#14801000
0)
#14820000
0C
0M
1=
0I
1G
0F
1,
b11001100 +
b11001100 0
1*
#14840000
0*
#14860000
b10000 8
0&
b11001100 :
1;
0,
0D
1E
0G
1*
#14880000
0*
#14900000
0?
0=
b110 9
0;
b1 7
0E
1*
#14920000
0*
#14940000
b10 7
1*
#14960000
0*
#14980000
b11 7
1*
#15000000
0*
#15020000
16
b100 7
14
b1111 8
1*
#15040000
0*
#15060000
1%
b110 5
b101 7
04
1*
#15080000
0*
#15100000
b110 7
1H
1*
#15120000
0*
#15140000
b1110111 A
b1 B
b111 7
1I
1*
#15160000
0*
#15180000
06
b0 7
1<
b1110 8
1*
#15200000
0*
#15220000
0%
b101 9
b1 7
0<
1*
#15240000
0*
#15260000
b10 7
0H
1*
#15280000
0*
#15300000
1$
b11101110 L
b11 7
0I
1*
#15320000
0*
#15340000
16
b100 7
14
b1101 8
1*
#15360000
0*
#15380000
1%
b101 5
b101 7
04
1*
#15400000
0*
#15420000
b110 7
1H
1*
#15440000
0*
#15460000
b11101111 A
b10 B
b111 7
1I
1*
#15480000
0*
#15500000
06
b0 7
1<
b1100 8
1*
#15520000
0*
#15540000
0%
0#
b100 9
b1 7
0<
1*
#15560000
0*
#15580000
b10 7
0J
0H
1*
#15600000
0*
#15620000
b11011100 L
b11 7
0K
0I
1*
#15640000
0*
#15660000
16
b100 7
14
b1011 8
1*
#15680000
0*
#15700000
1%
b100 5
b101 7
04
1*
#15720000
0*
#15740000
b110 7
1H
1*
#15760000
0*
#15780000
b11011110 A
b11 B
b111 7
1I
1*
#15800000
0*
#15820000
06
b0 7
1<
b1010 8
1*
#15840000
0*
#15860000
0%
b11 9
b1 7
0<
1*
#15880000
0*
#15900000
b10 7
0H
1*
#15920000
0*
#15940000
b10111000 L
b11 7
0I
1*
#15960000
0*
#15980000
16
b100 7
14
b1001 8
1*
#16000000
0*
#16020000
1%
b11 5
b1110110 (
b1110110 3
b101 7
04
1*
#16040000
0*
#16060000
b110 7
1H
1*
#16080000
0*
#16100000
b10111100 A
b100 B
b111 7
1I
1*
#16120000
0*
#16140000
06
b0 7
1<
b1000 8
1*
#16160000
0*
#16180000
0%
1#
b10 9
b1 7
0<
1*
#16200000
0*
#16220000
b10 7
1J
0H
1*
#16240000
0*
#16260000
0$
b1110000 L
b11 7
1K
0I
1*
#16280000
0*
#16300000
16
b100 7
14
b111 8
1*
#16320000
0*
#16340000
1%
b10 5
b101 7
04
1*
#16360000
0*
#16380000
b110 7
1H
1*
#16400000
0*
#16420000
b1111001 A
b101 B
b111 7
1I
1*
#16440000
0*
#16460000
06
b0 7
1<
b110 8
1*
#16480000
0*
#16500000
0%
b1 9
b1 7
0<
1*
#16520000
0*
#16540000
b10 7
0H
1*
#16560000
0*
#16580000
1$
b11100000 L
b11 7
0I
1*
#16600000
0*
#16620000
16
b100 7
14
b101 8
1*
