VIN_SPC/FPGA/top.vcd
$date
	Fri Sep 16 16:05:40 2016
$end
$version
	Icarus Verilog
$end
$timescale
	1s
$end
$scope module vin_spc_tb $end
$scope module my_top $end
$var wire 1 ! ARDUINO_RESET $end
$var wire 1 " CE $end
$var wire 4 # CapSel [3:0] $end
$var wire 2 $ CcompSel [1:0] $end
$var wire 1 % Cfg_in $end
$var wire 1 & Clk $end
$var wire 1 ' DIR_DOWN $end
$var wire 1 ( DIR_LEFT $end
$var wire 1 ) DIR_RIGHT $end
$var wire 1 * DIR_UP $end
$var wire 2 + DN [1:0] $end
$var wire 3 , DP [2:0] $end
$var wire 1 - EnHF $end
$var wire 1 . EnLF $end
$var wire 1 / EnMF $end
$var wire 1 0 EnRdeg $end
$var wire 2 1 EnRdegHF [1:0] $end
$var wire 4 2 F [3:0] $end
$var wire 1 3 FS $end
$var wire 3 4 GD [2:0] $end
$var wire 4 5 GS [3:0] $end
$var wire 1 6 IQ $end
$var wire 1 7 NS $end
$var wire 1 8 RE $end
$var wire 1 9 Resetn $end
$var reg 1 : LED0 $end
$var reg 1 ; LED1 $end
$var reg 1 < LED2 $end
$var reg 1 = LED3 $end
$var reg 1 > LED4 $end
$var reg 1 ? LED5 $end
$var reg 1 @ LED6 $end
$var reg 1 A LED7 $end
$scope module vin_spc_1 $end
$var wire 1 % Cfg_in $end
$var wire 1 & Clk $end
$var wire 1 9 Resetn $end
$var wire 1 B strobe $end
$var reg 1 C CE $end
$var reg 4 D CapSel [3:0] $end
$var reg 2 E CcompSel [1:0] $end
$var reg 2 F DN [1:0] $end
$var reg 3 G DP [2:0] $end
$var reg 1 H EnHF $end
$var reg 1 I EnLF $end
$var reg 1 J EnMF $end
$var reg 1 K EnRdeg $end
$var reg 2 L EnRdegHF [1:0] $end
$var reg 4 M F [3:0] $end
$var reg 1 N FS $end
$var reg 3 O GD [2:0] $end
$var reg 4 P GS [3:0] $end
$var reg 1 Q IQ $end
$var reg 1 R NS $end
$var reg 1 S RE $end
$var reg 6 T count [5:0] $end
$var reg 33 U out [32:0] $end
$upscope $end
$upscope $end
$upscope $end
$enddefinitions $end
#0
$dumpvars
bx U
bx T
xS
xR
xQ
bx P
bx O
xN
bx M
bx L
xK
xJ
xI
xH
bx G
bx F
bx E
bx D
xC
xB
xA
x@
x?
x>
x=
x<
x;
x:
19
x8
x7
x6
bx 5
bx 4
x3
bx 2
bx 1
x0
x/
x.
x-
bx ,
bx +
0*
0)
0(
0'
0&
0%
bx $
bx #
x"
0!
$end
#1
0A
0@
0?
0>
0=
0<
0;
0:
0B
b0 D
b0 #
b0 E
b0 $
b0 L
b0 1
0K
00
b0 G
b0 ,
b0 F
b0 +
0H
0-
0J
0/
0I
0.
0S
08
0N
03
b0 O
b0 4
0R
07
0C
0"
b0 P
b0 5
0Q
06
b0 M
b0 2
b100001 T
b0 U
09
#3
19
#4
1%
#5
b100000 T
b100000000000000000000000000000000 U
1&
#10
0&
#14
0%
#15
b11111 T
b10000000000000000000000000000000 U
1&
#20
0&
#24
1%
#25
b11110 T
b101000000000000000000000000000000 U
1&
#30
0&
#34
0%
#35
b11101 T
b10100000000000000000000000000000 U
1&
#40
0&
#45
b11100 T
b1010000000000000000000000000000 U
1&
#50
0&
#54
1%
#55
b11011 T
b100101000000000000000000000000000 U
1&
#60
0&
#64
0%
#65
b11010 T
b10010100000000000000000000000000 U
1&
#70
0&
#74
1%
#75
b11001 T
b101001010000000000000000000000000 U
1&
#80
0&
#85
b11000 T
b110100101000000000000000000000000 U
1&
#90
0&
#94
0%
#95
b10111 T
b11010010100000000000000000000000 U
1&
#100
0&
#104
1%
#105
b10110 T
b101101001010000000000000000000000 U
1&
#110
0&
#115
b10101 T
b110110100101000000000000000000000 U
1&
#120
0&
#124
0%
#125
b10100 T
b11011010010100000000000000000000 U
1&
#130
0&
#134
1%
#135
b10011 T
b101101101001010000000000000000000 U
1&
#140
0&
#144
0%
#145
b10010 T
b10110110100101000000000000000000 U
1&
#150
0&
#154
1%
#155
b10001 T
b101011011010010100000000000000000 U
1&
#160
0&
#164
0%
#165
b10000 T
b10101101101001010000000000000000 U
1&
#170
0&
#174
1%
#175
b1111 T
b101010110110100101000000000000000 U
1&
#180
0&
#185
b1110 T
b110101011011010010100000000000000 U
1&
#190
0&
#194
0%
#195
b1101 T
b11010101101101001010000000000000 U
1&
#200
0&
#205
b1100 T
b1101010110110100101000000000000 U
1&
#210
0&
#214
1%
#215
b1011 T
b100110101011011010010100000000000 U
1&
#220
0&
#225
b1010 T
b110011010101101101001010000000000 U
1&
#230
0&
#234
0%
#235
b1001 T
b11001101010110110100101000000000 U
1&
#240
0&
#245
b1000 T
b1100110101011011010010100000000 U
1&
#250
0&
#254
1%
#255
b111 T
b100110011010101101101001010000000 U
1&
#260
0&
#264
0%
#265
b110 T
b10011001101010110110100101000000 U
1&
#270
0&
#275
b101 T
b1001100110101011011010010100000 U
1&
#280
0&
#284
1%
#285
b100 T
b100100110011010101101101001010000 U
1&
#290
0&
#295
b11 T
b110010011001101010110110100101000 U
1&
#300
0&
#305
b10 T
b111001001100110101011011010010100 U
1&
#310
0&
#314
0%
#315
b1 T
b11100100110011010101101101001010 U
1&
#320
0&
#324
1%
#325
b0 T
b101110010011001101010110110100101 U
1&
#330
1A
1?
1<
1:
1S
18
b1 O
b1 4
1R
17
b1011 P
b1011 5
1Q
16
b1010 M
b1010 2
b110 D
b110 #
b10 E
b10 $
b1 L
b1 1
b1 G
b1 ,
b11 F
b11 +
1H
1-
1I
1.
1B
0&
#335
b111111 T
b110111001001100110101011011010010 U
0B
1&
#340
0&
#345
b111110 T
b111011100100110011010101101101001 U
1&
#350
0&
#355
b111101 T
b111101110010011001101010110110100 U
1&
#360
0&
#365
b111100 T
b111110111001001100110101011011010 U
1&
#370
0&
#375
b111011 T
b111111011100100110011010101101101 U
1&
#380
0&
#384
0A
0?
0<
0:
b0 D
b0 #
b0 E
b0 $
b0 L
b0 1
b0 G
b0 ,
b0 F
b0 +
0H
0-
0I
0.
0S
08
b0 O
b0 4
0R
07
b0 P
b0 5
0Q
06
b0 M
b0 2
b100001 T
b0 U
09
#385
1&
#386
19
#387
0%
#390
0&
#395
b100000 T
b0 U
1&
#397
1%
#400
0&
#405
b11111 T
b100000000000000000000000000000000 U
1&
#407
0%
#410
0&
#415
b11110 T
b10000000000000000000000000000000 U
1&
#417
1%
#420
0&
#425
b11101 T
b101000000000000000000000000000000 U
1&
#430
0&
#435
b11100 T
b110100000000000000000000000000000 U
1&
#437
0%
#440
0&
#445
b11011 T
b11010000000000000000000000000000 U
1&
#447
1%
#450
0&
#455
b11010 T
b101101000000000000000000000000000 U
1&
#457
0%
#460
0&
#465
b11001 T
b10110100000000000000000000000000 U
1&
#470
0&
#475
b11000 T
b1011010000000000000000000000000 U
1&
#477
1%
#480
0&
#485
b10111 T
b100101101000000000000000000000000 U
1&
#487
0%
#490
0&
#495
b10110 T
b10010110100000000000000000000000 U
1&
#500
0&
#505
b10101 T
b1001011010000000000000000000000 U
1&
#507
1%
#510
0&
#515
b10100 T
b100100101101000000000000000000000 U
1&
#517
0%
#520
0&
#525
b10011 T
b10010010110100000000000000000000 U
1&
#527
1%
#530
0&
#535
b10010 T
b101001001011010000000000000000000 U
1&
#537
0%
#540
0&
#545
b10001 T
b10100100101101000000000000000000 U
1&
#547
1%
#550
0&
#555
b10000 T
b101010010010110100000000000000000 U
1&
#557
0%
#560
0&
#565
b1111 T
b10101001001011010000000000000000 U
1&
#570
0&
#575
b1110 T
b1010100100101101000000000000000 U
1&
#577
1%
#580
0&
#585
b1101 T
b100101010010010110100000000000000 U
1&
#590
0&
#595
b1100 T
b110010101001001011010000000000000 U
1&
#597
0%
#600
0&
#605
b1011 T
b11001010100100101101000000000000 U
1&
#610
0&
#615
b1010 T
b1100101010010010110100000000000 U
1&
#617
1%
#620
0&
#625
b1001 T
b100110010101001001011010000000000 U
1&
#630
0&
#635
b1000 T
b110011001010100100101101000000000 U
1&
#637
0%
#640
0&
#645
b111 T
b11001100101010010010110100000000 U
1&
#647
1%
#650
0&
#655
b110 T
b101100110010101001001011010000000 U
1&
#660
0&
#665
b101 T
b110110011001010100100101101000000 U
1&
#667
0%
#670
0&
#675
b100 T
b11011001100101010010010110100000 U
1&
#680
0&
#685
b11 T
b1101100110010101001001011010000 U
1&
#690
0&
#695
b10 T
b110110011001010100100101101000 U
1&
#697
1%
#700
0&
#705
b1 T
b100011011001100101010010010110100 U
1&
#707
0%
#710
0&
#715
b0 T
b10001101100110010101001001011010 U
1&
#720
1@
1>
1=
1;
1N
13
b110 O
b110 4
1C
1"
b100 P
b100 5
b101 M
b101 2
b1001 D
b1001 #
b1 E
b1 $
b10 L
b10 1
1K
10
b110 G
b110 ,
1J
1/
1B
0&
#725
b111111 T
b1000110110011001010100100101101 U
0B
1&
#730
0&
#735
b111110 T
b100011011001100101010010010110 U
1&
#740
0&
#745
b111101 T
b10001101100110010101001001011 U
1&
#750
0&
#755
b111100 T
b1000110110011001010100100101 U
1&
