spi-master/Test/dump.vcd
$date
	Sat Nov  7 21:10:01 2020
$end
$version
	Icarus Verilog
$end
$timescale
	1ps
$end
$scope module SPI_Master_TB $end
$var wire 1 ! w_SPI_MOSI $end
$var wire 1 " w_SPI_Clk $end
$var wire 1 # w_Master_TX_Ready $end
$var wire 1 $ r_Master_RX_DV $end
$var wire 8 % r_Master_RX_Byte [7:0] $end
$var reg 1 & r_Clk $end
$var reg 8 ' r_Master_TX_Byte [7:0] $end
$var reg 1 ( r_Master_TX_DV $end
$var reg 1 ) r_Rst_L $end
$scope module SPI_Master_UUT $end
$var wire 1 & i_Clk $end
$var wire 1 ) i_Rst_L $end
$var wire 8 * i_TX_Byte [7:0] $end
$var wire 1 ( i_TX_DV $end
$var wire 1 + w_CPHA $end
$var wire 1 , w_CPOL $end
$var wire 1 ! i_SPI_MISO $end
$var reg 8 - o_RX_Byte [7:0] $end
$var reg 1 $ o_RX_DV $end
$var reg 1 " o_SPI_Clk $end
$var reg 1 ! o_SPI_MOSI $end
$var reg 1 # o_TX_Ready $end
$var reg 1 . r_Leading_Edge $end
$var reg 3 / r_RX_Bit_Count [2:0] $end
$var reg 1 0 r_SPI_Clk $end
$var reg 3 1 r_SPI_Clk_Count [2:0] $end
$var reg 5 2 r_SPI_Clk_Edges [4:0] $end
$var reg 3 3 r_TX_Bit_Count [2:0] $end
$var reg 8 4 r_TX_Byte [7:0] $end
$var reg 1 5 r_TX_DV $end
$var reg 1 6 r_Trailing_Edge $end
$upscope $end
$scope task SendSingleByte $end
$var reg 8 7 data [7:0] $end
$upscope $end
$upscope $end
$enddefinitions $end
#0
$dumpvars
bx 7
06
05
b0 4
b111 3
b0 2
b0 1
10
b111 /
0.
b0 -
1,
1+
b0 *
0)
0(
b0 '
0&
b0 %
0$
0#
1"
0!
$end
#2000
1&
#4000
0&
#6000
1&
#8000
0&
#10000
1&
#12000
0&
#14000
1&
#16000
0&
#18000
1&
#20000
0&
#22000
1&
#24000
0&
#26000
1&
#28000
0&
#30000
1&
#32000
0&
#34000
1&
#36000
0&
#38000
1&
#40000
0&
#42000
1&
#44000
0&
#46000
1&
#48000
0&
#50000
1&
#52000
0&
#54000
1&
#56000
0&
#58000
1&
#60000
0&
#62000
1&
#64000
0&
#66000
1&
#68000
0&
#70000
1&
#72000
0&
#74000
1&
#76000
0&
#78000
1#
b11000001 7
1)
1&
#80000
0&
#82000
1(
b11000001 '
b11000001 *
1&
#84000
0&
#86000
b10000 2
0#
b11000001 4
15
0(
1&
#88000
0&
#90000
05
b1 1
1&
#92000
0&
#94000
b10 1
1&
#96000
0&
#98000
b11 1
1&
#100000
0&
#102000
00
b100 1
1.
b1111 2
1&
#104000
0&
#106000
0"
1!
b110 3
b101 1
0.
1&
#108000
0&
#110000
b110 1
1&
#112000
0&
#114000
b111 1
1&
#116000
0&
#118000
10
b0 1
16
b1110 2
1&
#120000
0&
#122000
1"
b110 /
b10000000 %
b10000000 -
b1 1
06
1&
#124000
0&
#126000
b10 1
1&
#128000
0&
#130000
b11 1
1&
#132000
0&
#134000
00
b100 1
1.
b1101 2
1&
#136000
0&
#138000
0"
b101 3
b101 1
0.
1&
#140000
0&
#142000
b110 1
1&
#144000
0&
#146000
b111 1
1&
#148000
0&
#150000
10
b0 1
16
b1100 2
1&
#152000
0&
#154000
1"
b101 /
b11000000 %
b11000000 -
b1 1
06
1&
#156000
0&
#158000
b10 1
1&
#160000
0&
#162000
b11 1
1&
#164000
0&
#166000
00
b100 1
1.
b1011 2
1&
#168000
0&
#170000
0"
0!
b100 3
b101 1
0.
1&
#172000
0&
#174000
b110 1
1&
#176000
0&
#178000
b111 1
1&
#180000
0&
#182000
10
b0 1
16
b1010 2
1&
#184000
0&
#186000
1"
b100 /
b1 1
06
1&
#188000
0&
#190000
b10 1
1&
#192000
0&
#194000
b11 1
1&
#196000
0&
#198000
00
b100 1
1.
b1001 2
1&
#200000
0&
#202000
0"
b11 3
b101 1
0.
1&
#204000
0&
#206000
b110 1
1&
#208000
0&
#210000
b111 1
1&
#212000
0&
#214000
10
b0 1
16
b1000 2
1&
#216000
0&
#218000
1"
b11 /
b1 1
06
1&
#220000
0&
#222000
b10 1
1&
#224000
0&
#226000
b11 1
1&
#228000
0&
#230000
00
b100 1
1.
b111 2
1&
#232000
0&
#234000
0"
b10 3
b101 1
0.
1&
#236000
0&
#238000
b110 1
1&
#240000
0&
#242000
b111 1
1&
#244000
0&
#246000
10
b0 1
16
b110 2
1&
#248000
0&
#250000
1"
b10 /
b1 1
06
1&
#252000
0&
#254000
b10 1
1&
#256000
0&
#258000
b11 1
1&
#260000
0&
#262000
00
b100 1
1.
b101 2
1&
#264000
0&
#266000
0"
b1 3
b101 1
0.
1&
#268000
0&
#270000
b110 1
1&
#272000
0&
#274000
b111 1
1&
#276000
0&
#278000
10
b0 1
16
b100 2
1&
#280000
0&
#282000
1"
b1 /
b1 1
06
1&
#284000
0&
#286000
b10 1
1&
#288000
0&
#290000
b11 1
1&
#292000
0&
#294000
00
b100 1
1.
b11 2
1&
#296000
0&
#298000
0"
b0 3
b101 1
0.
1&
#300000
0&
#302000
b110 1
1&
#304000
0&
#306000
b111 1
1&
#308000
0&
#310000
10
b0 1
16
b10 2
1&
#312000
0&
#314000
1"
b0 /
b1 1
06
1&
#316000
0&
#318000
b10 1
1&
#320000
0&
#322000
b11 1
1&
#324000
0&
#326000
00
b100 1
1.
b1 2
1&
#328000
0&
#330000
0"
1!
b111 3
b101 1
0.
1&
#332000
0&
#334000
b110 1
1&
#336000
0&
#338000
b111 1
1&
#340000
0&
#342000
10
b0 1
16
b0 2
1&
#344000
0&
#346000
b10111110 7
1"
1$
b111 /
b11000001 %
b11000001 -
1#
06
1&
#348000
0&
#350000
0$
1(
b10111110 '
b10111110 *
1&
#352000
0&
#354000
b10111110 4
15
b10000 2
0#
0(
1&
#356000
0&
#358000
b1 1
05
1&
#360000
0&
#362000
b10 1
1&
#364000
0&
#366000
b11 1
1&
#368000
0&
#370000
00
b100 1
1.
b1111 2
1&
#372000
0&
#374000
b101 1
0.
b110 3
0"
1&
#376000
0&
#378000
b110 1
1&
#380000
0&
#382000
b111 1
1&
#384000
0&
#386000
10
b0 1
16
b1110 2
1&
#388000
0&
#390000
b1 1
06
b110 /
1"
1&
#392000
0&
#394000
b10 1
1&
#396000
0&
#398000
b11 1
1&
#400000
0&
#402000
00
b100 1
1.
b1101 2
1&
#404000
0&
#406000
b101 1
0.
0!
b101 3
0"
1&
#408000
0&
#410000
b110 1
1&
#412000
0&
#414000
b111 1
1&
#416000
0&
#418000
10
b0 1
16
b1100 2
1&
#420000
0&
#422000
b1 1
06
b101 /
b10000001 %
b10000001 -
1"
1&
#424000
0&
#426000
b10 1
1&
#428000
0&
#430000
b11 1
1&
#432000
0&
#434000
00
b100 1
1.
b1011 2
1&
#436000
0&
#438000
b101 1
0.
1!
b100 3
0"
1&
#440000
0&
#442000
b110 1
1&
#444000
0&
#446000
b111 1
1&
#448000
0&
#450000
10
b0 1
16
b1010 2
1&
#452000
0&
#454000
b1 1
06
b100 /
b10100001 %
b10100001 -
1"
1&
#456000
0&
#458000
b10 1
1&
#460000
0&
#462000
b11 1
1&
#464000
0&
#466000
00
b100 1
1.
b1001 2
1&
#468000
0&
#470000
b101 1
0.
b11 3
0"
1&
#472000
0&
#474000
b110 1
1&
#476000
0&
#478000
b111 1
1&
#480000
0&
#482000
10
b0 1
16
b1000 2
1&
#484000
0&
#486000
b1 1
06
b11 /
b10110001 %
b10110001 -
1"
1&
#488000
0&
#490000
b10 1
1&
#492000
0&
#494000
b11 1
1&
#496000
0&
#498000
00
b100 1
1.
b111 2
1&
#500000
0&
#502000
b101 1
0.
b10 3
0"
1&
#504000
0&
#506000
b110 1
1&
#508000
0&
#510000
b111 1
1&
#512000
0&
#514000
10
b0 1
16
b110 2
1&
#516000
0&
#518000
b1 1
06
b10 /
b10111001 %
b10111001 -
1"
1&
#520000
0&
#522000
b10 1
1&
#524000
0&
#526000
b11 1
1&
#528000
0&
#530000
00
b100 1
1.
b101 2
1&
#532000
0&
#534000
b101 1
0.
b1 3
0"
1&
#536000
0&
#538000
b110 1
1&
#540000
0&
#542000
b111 1
1&
#544000
0&
#546000
10
b0 1
16
b100 2
1&
#548000
0&
#550000
b1 1
06
b1 /
b10111101 %
b10111101 -
1"
1&
#552000
0&
#554000
b10 1
1&
#556000
0&
#558000
b11 1
1&
#560000
0&
#562000
00
b100 1
1.
b11 2
1&
#564000
0&
#566000
b101 1
0.
b0 3
0"
1&
#568000
0&
#570000
b110 1
1&
#572000
0&
#574000
b111 1
1&
#576000
0&
#578000
10
b0 1
16
b10 2
1&
#580000
0&
#582000
b1 1
06
b0 /
b10111111 %
b10111111 -
1"
1&
#584000
0&
#586000
b10 1
1&
#588000
0&
#590000
b11 1
1&
#592000
0&
#594000
00
b100 1
1.
b1 2
1&
#596000
0&
#598000
b101 1
0.
0!
b111 3
0"
1&
#600000
0&
#602000
b110 1
1&
#604000
0&
#606000
b111 1
1&
#608000
0&
#610000
10
b0 1
16
b0 2
1&
#612000
0&
#614000
b11101111 7
1#
06
1$
b111 /
b10111110 %
b10111110 -
1"
1&
#616000
0&
#618000
0$
1(
b11101111 '
b11101111 *
1&
#620000
0&
#622000
b10000 2
0#
b11101111 4
15
0(
1&
#624000
0&
#626000
05
b1 1
1&
#628000
0&
#630000
b10 1
1&
#632000
0&
#634000
b11 1
1&
#636000
0&
#638000
00
b100 1
1.
b1111 2
1&
#640000
0&
#642000
0"
1!
b110 3
b101 1
0.
1&
#644000
0&
#646000
b110 1
1&
#648000
0&
#650000
b111 1
1&
#652000
0&
#654000
10
b0 1
16
b1110 2
1&
#656000
0&
#658000
1"
b110 /
b1 1
06
1&
#660000
0&
#662000
b10 1
1&
#664000
0&
#666000
b11 1
1&
#668000
0&
#670000
00
b100 1
1.
b1101 2
1&
#672000
0&
#674000
0"
b101 3
b101 1
0.
1&
#676000
0&
#678000
b110 1
1&
#680000
0&
#682000
b111 1
1&
#684000
0&
#686000
10
b0 1
16
b1100 2
1&
#688000
0&
#690000
1"
b101 /
b11111110 %
b11111110 -
b1 1
06
1&
#692000
0&
#694000
b10 1
1&
#696000
0&
#698000
b11 1
1&
#700000
0&
#702000
00
b100 1
1.
b1011 2
1&
#704000
0&
#706000
0"
b100 3
b101 1
0.
1&
#708000
0&
#710000
b110 1
1&
#712000
0&
#714000
b111 1
1&
#716000
0&
#718000
10
b0 1
16
b1010 2
1&
#720000
0&
#722000
1"
b100 /
b1 1
06
1&
#724000
0&
#726000
b10 1
1&
#728000
0&
#730000
b11 1
1&
#732000
0&
#734000
00
b100 1
1.
b1001 2
1&
#736000
0&
#738000
0"
0!
b11 3
b101 1
0.
1&
#740000
0&
#742000
b110 1
1&
#744000
0&
#746000
b111 1
1&
#748000
0&
#750000
10
b0 1
16
b1000 2
1&
#752000
0&
#754000
1"
b11 /
b11101110 %
b11101110 -
b1 1
06
1&
#756000
0&
#758000
b10 1
1&
#760000
0&
#762000
b11 1
1&
#764000
0&
#766000
00
b100 1
1.
b111 2
1&
#768000
0&
#770000
0"
1!
b10 3
b101 1
0.
1&
#772000
0&
#774000
b110 1
1&
#776000
0&
#778000
b111 1
1&
#780000
0&
#782000
10
b0 1
16
b110 2
1&
#784000
0&
#786000
1"
b10 /
b1 1
06
1&
#788000
0&
#790000
b10 1
1&
#792000
0&
#794000
b11 1
1&
#796000
0&
#798000
00
b100 1
1.
b101 2
1&
#800000
0&
#802000
0"
b1 3
b101 1
0.
1&
#804000
0&
#806000
b110 1
1&
#808000
0&
#810000
b111 1
1&
#812000
0&
#814000
10
b0 1
16
b100 2
1&
#816000
0&
#818000
1"
b1 /
b1 1
06
1&
#820000
0&
#822000
b10 1
1&
#824000
0&
#826000
b11 1
1&
#828000
0&
#830000
00
b100 1
1.
b11 2
1&
#832000
0&
#834000
0"
b0 3
b101 1
0.
1&
#836000
0&
#838000
b110 1
1&
#840000
0&
#842000
b111 1
1&
#844000
0&
#846000
10
b0 1
16
b10 2
1&
#848000
0&
#850000
1"
b0 /
b1 1
06
1&
#852000
0&
#854000
b10 1
1&
#856000
0&
#858000
b11 1
1&
#860000
0&
#862000
00
b100 1
1.
b1 2
1&
#864000
0&
#866000
0"
b111 3
b101 1
0.
1&
#868000
0&
#870000
b110 1
1&
#872000
0&
#874000
b111 1
1&
#876000
0&
#878000
10
b0 1
16
b0 2
1&
#880000
0&
#882000
1"
1$
b111 /
b11101111 %
b11101111 -
1#
06
1&
#884000
0&
#886000
0$
1&
