IMP_PLL_COUNT64/SYNTHESIS/SYSTHESIS_SIMUL/FreqDiv64.vcd
$date
    Apr 11, 2016  13:47:47
$end
$version
    TOOL:	ncsim(64)	14.20-s021
$end
$timescale
    1 ps
$end

$scope module FreqDiv64_tb $end

$scope module my_FreqDiv64 $end
$var wire      1 !    Fin  $end
$var wire      1 "    Resetn  $end
$var wire      1 #    Fsel [3] $end
$var wire      1 $    Fsel [2] $end
$var wire      1 %    Fsel [1] $end
$var wire      1 &    Fsel [0] $end
$var wire      1 '    Fout  $end
$var wire      1 (    F_PFD  $end
$var wire      1 )    divider [14] $end
$var wire      1 *    divider [13] $end
$var wire      1 +    divider [12] $end
$var wire      1 ,    divider [11] $end
$var wire      1 -    divider [10] $end
$var wire      1 .    divider [9] $end
$var wire      1 /    divider [8] $end
$var wire      1 0    divider [7] $end
$var wire      1 1    divider [6] $end
$var wire      1 2    divider [5] $end
$var wire      1 3    divider [4] $end
$var wire      1 4    divider [3] $end
$var wire      1 5    divider [2] $end
$var wire      1 6    divider [1] $end
$var wire      1 7    divider [0] $end
$var wire      1 8    UNCONNECTED  $end
$var wire      1 9    UNCONNECTED0  $end
$var wire      1 :    UNCONNECTED1  $end
$var wire      1 ;    UNCONNECTED2  $end
$var wire      1 <    UNCONNECTED3  $end
$var wire      1 =    UNCONNECTED4  $end
$var wire      1 >    UNCONNECTED5  $end
$var wire      1 ?    UNCONNECTED6  $end
$var wire      1 @    UNCONNECTED7  $end
$var wire      1 A    UNCONNECTED8  $end
$var wire      1 B    UNCONNECTED9  $end
$var wire      1 C    UNCONNECTED10  $end
$var wire      1 D    UNCONNECTED11  $end
$var wire      1 E    UNCONNECTED12  $end
$var wire      1 F    n_0  $end
$var wire      1 G    n_1  $end
$var wire      1 H    n_2  $end
$var wire      1 I    n_3  $end
$var wire      1 J    n_4  $end
$var wire      1 K    n_5  $end
$var wire      1 L    n_6  $end
$var wire      1 M    n_7  $end
$var wire      1 N    n_8  $end
$var wire      1 O    n_9  $end
$var wire      1 P    n_10  $end
$var wire      1 Q    n_11  $end
$var wire      1 R    n_12  $end
$var wire      1 S    n_13  $end
$var wire      1 T    n_14  $end
$var wire      1 U    n_15  $end
$var wire      1 V    n_16  $end
$var wire      1 W    n_17  $end
$var wire      1 X    n_18  $end
$var wire      1 Y    n_19  $end
$var wire      1 Z    n_20  $end
$var wire      1 [    n_21  $end
$var wire      1 \    n_22  $end
$var wire      1 ]    n_23  $end
$var wire      1 ^    n_24  $end
$var wire      1 _    n_25  $end
$var wire      1 `    n_26  $end
$var wire      1 a    n_27  $end
$var wire      1 b    n_28  $end
$var wire      1 c    n_29  $end
$var wire      1 d    n_30  $end
$var wire      1 e    n_31  $end
$var wire      1 f    n_32  $end
$var wire      1 g    n_33  $end
$var wire      1 h    n_34  $end
$var wire      1 i    n_35  $end
$var wire      1 j    n_36  $end
$var wire      1 k    n_37  $end
$var wire      1 l    n_38  $end
$var wire      1 m    n_39  $end
$var wire      1 n    n_40  $end
$var wire      1 o    n_41  $end
$var wire      1 p    n_42  $end
$var wire      1 q    n_43  $end
$var wire      1 r    n_44  $end
$var wire      1 s    n_45  $end
$var wire      1 t    n_46  $end

$scope module g442 $end
$var wire      1 t    A  $end
$var wire      1 s    B  $end
$var wire      1 #    S  $end
$var wire      1 '    Q  $end
$var wire      1 u    i_336  $end
$var wire      1 v    i_334  $end
$var wire      1 w    i_335  $end
$upscope $end


$scope module g443 $end
$var wire      1 l    A1  $end
$var wire      1 d    A2  $end
$var wire      1 q    B1  $end
$var wire      1 p    C1  $end
$var wire      1 t    Q  $end
$var wire      1 x    i_150  $end
$var wire      1 y    i_151  $end
$var wire      1 z    i_152  $end
$upscope $end


$scope module g444 $end
$var wire      1 m    A1  $end
$var wire      1 g    A2  $end
$var wire      1 n    B1  $end
$var wire      1 f    B2  $end
$var wire      1 r    C1  $end
$var wire      1 s    Q  $end
$var wire      1 {    i_55  $end
$var wire      1 |    i_56  $end
$var wire      1 }    i_58  $end
$var wire      1 ~    i_57  $end
$upscope $end


$scope module g445 $end
$var wire      1 o    A1  $end
$var wire      1 h    A2  $end
$var wire      1 k    B1  $end
$var wire      1 d    B2  $end
$var wire      1 r    Q  $end
$var wire      1 !!   i_33  $end
$var wire      1 "!   i_32  $end
$upscope $end


$scope module g446 $end
$var wire      1 i    A1  $end
$var wire      1 g    A2  $end
$var wire      1 j    B1  $end
$var wire      1 h    B2  $end
$var wire      1 q    Q  $end
$var wire      1 #!   i_33  $end
$var wire      1 $!   i_32  $end
$upscope $end


$scope module g447 $end
$var wire      1 !    A1  $end
$var wire      1 &    A2  $end
$var wire      1 7    B1  $end
$var wire      1 b    B2  $end
$var wire      1 e    C1  $end
$var wire      1 p    Q  $end
$var wire      1 %!   i_55  $end
$var wire      1 &!   i_56  $end
$var wire      1 '!   i_58  $end
$var wire      1 (!   i_57  $end
$upscope $end


$scope module g448 $end
$var wire      1 ,    A  $end
$var wire      1 +    B  $end
$var wire      1 &    S  $end
$var wire      1 o    Q  $end
$var wire      1 )!   i_223  $end
$var wire      1 *!   i_226  $end
$var wire      1 +!   i_224  $end
$var wire      1 ,!   i_225  $end
$upscope $end


$scope module g449 $end
$var wire      1 0    A  $end
$var wire      1 /    B  $end
$var wire      1 &    S  $end
$var wire      1 n    Q  $end
$var wire      1 -!   i_223  $end
$var wire      1 .!   i_226  $end
$var wire      1 /!   i_224  $end
$var wire      1 0!   i_225  $end
$upscope $end


$scope module g450 $end
$var wire      1 .    A  $end
$var wire      1 *    B  $end
$var wire      1 $    S  $end
$var wire      1 m    Q  $end
$var wire      1 1!   i_223  $end
$var wire      1 2!   i_226  $end
$var wire      1 3!   i_224  $end
$var wire      1 4!   i_225  $end
$upscope $end


$scope module g451 $end
$var wire      1 5    A  $end
$var wire      1 1    B  $end
$var wire      1 $    S  $end
$var wire      1 l    Q  $end
$var wire      1 5!   i_223  $end
$var wire      1 6!   i_226  $end
$var wire      1 7!   i_224  $end
$var wire      1 8!   i_225  $end
$upscope $end


$scope module g452 $end
$var wire      1 -    A  $end
$var wire      1 )    B  $end
$var wire      1 $    S  $end
$var wire      1 k    Q  $end
$var wire      1 9!   i_223  $end
$var wire      1 :!   i_226  $end
$var wire      1 ;!   i_224  $end
$var wire      1 <!   i_225  $end
$upscope $end


$scope module g453 $end
$var wire      1 4    A  $end
$var wire      1 3    B  $end
$var wire      1 &    S  $end
$var wire      1 j    Q  $end
$var wire      1 =!   i_223  $end
$var wire      1 >!   i_226  $end
$var wire      1 ?!   i_224  $end
$var wire      1 @!   i_225  $end
$upscope $end


$scope module g454 $end
$var wire      1 6    A  $end
$var wire      1 (    B  $end
$var wire      1 $    S  $end
$var wire      1 i    Q  $end
$var wire      1 A!   i_223  $end
$var wire      1 B!   i_226  $end
$var wire      1 C!   i_224  $end
$var wire      1 D!   i_225  $end
$upscope $end


$scope module g455 $end
$var wire      1 c    A  $end
$var wire      1 %    B  $end
$var wire      1 h    Q  $end
$upscope $end


$scope module g456 $end
$var wire      1 b    A  $end
$var wire      1 %    B  $end
$var wire      1 g    Q  $end
$var wire      1 E!   i_175  $end
$upscope $end


$scope module g457 $end
$var wire      1 e    A  $end
$var wire      1 f    Q  $end
$upscope $end


$scope module g458 $end
$var wire      1 %    A  $end
$var wire      1 $    B  $end
$var wire      1 e    Q  $end
$var wire      1 F!   i_316  $end
$upscope $end


$scope module g459 $end
$var wire      1 &    A  $end
$var wire      1 %    B  $end
$var wire      1 d    Q  $end
$var wire      1 G!   i_175  $end
$upscope $end


$scope module g460 $end
$var wire      1 $    A  $end
$var wire      1 c    Q  $end
$upscope $end


$scope module g461 $end
$var wire      1 &    A  $end
$var wire      1 b    Q  $end
$upscope $end


$scope module \divider_reg[14]  $end
$var wire      1 a    D  $end
$var wire      1 "    RN  $end
$var wire      1 !    CP  $end
$var wire      1 )    Q  $end
$var wire      1 8    QN  $end
$var reg       1 H!   NOTIFIER  $end
$var wire      1 I!   RN_di  $end
$var wire      1 J!   RN_d  $end
$var wire      1 K!   CP_d  $end
$var wire      1 L!   nextstate  $end
$var wire      1 M!   IQ  $end
$var wire      1 N!   IQN  $end
$var wire      1 a    D_d  $end
$var wire      1 O!   id_11  $end
$var wire      1 P!   xid_11  $end
$upscope $end


$scope module g266 $end
$var wire      1 )    A  $end
$var wire      1 _    B  $end
$var wire      1 a    Q  $end
$var wire      1 Q!   i_412  $end
$var wire      1 R!   i_414  $end
$var wire      1 S!   i_413  $end
$var wire      1 T!   i_415  $end
$upscope $end


$scope module \divider_reg[13]  $end
$var wire      1 `    D  $end
$var wire      1 "    RN  $end
$var wire      1 !    CP  $end
$var wire      1 *    Q  $end
$var wire      1 9    QN  $end
$var reg       1 U!   NOTIFIER  $end
$var wire      1 I!   RN_di  $end
$var wire      1 V!   RN_d  $end
$var wire      1 K!   CP_d  $end
$var wire      1 W!   nextstate  $end
$var wire      1 X!   IQ  $end
$var wire      1 Y!   IQN  $end
$var wire      1 `    D_d  $end
$var wire      1 Z!   id_11  $end
$var wire      1 [!   xid_11  $end
$upscope $end


$scope module g268 $end
$var wire      1 ]    A  $end
$var wire      1 *    B  $end
$var wire      1 _    CO  $end
$var wire      1 `    SUM  $end
$var wire      1 \!   i_370  $end
$var wire      1 ]!   i_372  $end
$var wire      1 ^!   i_371  $end
$var wire      1 _!   i_373  $end
$upscope $end


$scope module \divider_reg[12]  $end
$var wire      1 ^    D  $end
$var wire      1 "    RN  $end
$var wire      1 !    CP  $end
$var wire      1 +    Q  $end
$var wire      1 :    QN  $end
$var reg       1 `!   NOTIFIER  $end
$var wire      1 I!   RN_di  $end
$var wire      1 a!   RN_d  $end
$var wire      1 K!   CP_d  $end
$var wire      1 b!   nextstate  $end
$var wire      1 c!   IQ  $end
$var wire      1 d!   IQN  $end
$var wire      1 ^    D_d  $end
$var wire      1 e!   id_11  $end
$var wire      1 f!   xid_11  $end
$upscope $end


$scope module g270 $end
$var wire      1 [    A  $end
$var wire      1 +    B  $end
$var wire      1 ]    CO  $end
$var wire      1 ^    SUM  $end
$var wire      1 g!   i_370  $end
$var wire      1 h!   i_372  $end
$var wire      1 i!   i_371  $end
$var wire      1 j!   i_373  $end
$upscope $end


$scope module \divider_reg[11]  $end
$var wire      1 \    D  $end
$var wire      1 "    RN  $end
$var wire      1 !    CP  $end
$var wire      1 ,    Q  $end
$var wire      1 ;    QN  $end
$var reg       1 k!   NOTIFIER  $end
$var wire      1 I!   RN_di  $end
$var wire      1 l!   RN_d  $end
$var wire      1 K!   CP_d  $end
$var wire      1 m!   nextstate  $end
$var wire      1 n!   IQ  $end
$var wire      1 o!   IQN  $end
$var wire      1 \    D_d  $end
$var wire      1 p!   id_11  $end
$var wire      1 q!   xid_11  $end
$upscope $end


$scope module g272 $end
$var wire      1 Y    A  $end
$var wire      1 ,    B  $end
$var wire      1 [    CO  $end
$var wire      1 \    SUM  $end
$var wire      1 r!   i_370  $end
$var wire      1 s!   i_372  $end
$var wire      1 t!   i_371  $end
$var wire      1 u!   i_373  $end
$upscope $end


$scope module \divider_reg[10]  $end
$var wire      1 Z    D  $end
$var wire      1 "    RN  $end
$var wire      1 !    CP  $end
$var wire      1 -    Q  $end
$var wire      1 <    QN  $end
$var reg       1 v!   NOTIFIER  $end
$var wire      1 I!   RN_di  $end
$var wire      1 w!   RN_d  $end
$var wire      1 K!   CP_d  $end
$var wire      1 x!   nextstate  $end
$var wire      1 y!   IQ  $end
$var wire      1 z!   IQN  $end
$var wire      1 Z    D_d  $end
$var wire      1 {!   id_11  $end
$var wire      1 |!   xid_11  $end
$upscope $end


$scope module g274 $end
$var wire      1 W    A  $end
$var wire      1 -    B  $end
$var wire      1 Y    CO  $end
$var wire      1 Z    SUM  $end
$var wire      1 }!   i_370  $end
$var wire      1 ~!   i_372  $end
$var wire      1 !"   i_371  $end
$var wire      1 ""   i_373  $end
$upscope $end


$scope module \divider_reg[9]  $end
$var wire      1 X    D  $end
$var wire      1 "    RN  $end
$var wire      1 !    CP  $end
$var wire      1 .    Q  $end
$var wire      1 =    QN  $end
$var reg       1 #"   NOTIFIER  $end
$var wire      1 I!   RN_di  $end
$var wire      1 $"   RN_d  $end
$var wire      1 K!   CP_d  $end
$var wire      1 %"   nextstate  $end
$var wire      1 &"   IQ  $end
$var wire      1 '"   IQN  $end
$var wire      1 X    D_d  $end
$var wire      1 ("   id_11  $end
$var wire      1 )"   xid_11  $end
$upscope $end


$scope module g276 $end
$var wire      1 U    A  $end
$var wire      1 .    B  $end
$var wire      1 W    CO  $end
$var wire      1 X    SUM  $end
$var wire      1 *"   i_370  $end
$var wire      1 +"   i_372  $end
$var wire      1 ,"   i_371  $end
$var wire      1 -"   i_373  $end
$upscope $end


$scope module \divider_reg[8]  $end
$var wire      1 V    D  $end
$var wire      1 "    RN  $end
$var wire      1 !    CP  $end
$var wire      1 /    Q  $end
$var wire      1 >    QN  $end
$var reg       1 ."   NOTIFIER  $end
$var wire      1 I!   RN_di  $end
$var wire      1 /"   RN_d  $end
$var wire      1 K!   CP_d  $end
$var wire      1 0"   nextstate  $end
$var wire      1 1"   IQ  $end
$var wire      1 2"   IQN  $end
$var wire      1 V    D_d  $end
$var wire      1 3"   id_11  $end
$var wire      1 4"   xid_11  $end
$upscope $end


$scope module g278 $end
$var wire      1 S    A  $end
$var wire      1 /    B  $end
$var wire      1 U    CO  $end
$var wire      1 V    SUM  $end
$var wire      1 5"   i_370  $end
$var wire      1 6"   i_372  $end
$var wire      1 7"   i_371  $end
$var wire      1 8"   i_373  $end
$upscope $end


$scope module \divider_reg[7]  $end
$var wire      1 T    D  $end
$var wire      1 "    RN  $end
$var wire      1 !    CP  $end
$var wire      1 0    Q  $end
$var wire      1 ?    QN  $end
$var reg       1 9"   NOTIFIER  $end
$var wire      1 I!   RN_di  $end
$var wire      1 :"   RN_d  $end
$var wire      1 K!   CP_d  $end
$var wire      1 ;"   nextstate  $end
$var wire      1 <"   IQ  $end
$var wire      1 ="   IQN  $end
$var wire      1 T    D_d  $end
$var wire      1 >"   id_11  $end
$var wire      1 ?"   xid_11  $end
$upscope $end


$scope module g280 $end
$var wire      1 Q    A  $end
$var wire      1 0    B  $end
$var wire      1 S    CO  $end
$var wire      1 T    SUM  $end
$var wire      1 @"   i_370  $end
$var wire      1 A"   i_372  $end
$var wire      1 B"   i_371  $end
$var wire      1 C"   i_373  $end
$upscope $end


$scope module \divider_reg[6]  $end
$var wire      1 R    D  $end
$var wire      1 "    RN  $end
$var wire      1 !    CP  $end
$var wire      1 1    Q  $end
$var wire      1 @    QN  $end
$var reg       1 D"   NOTIFIER  $end
$var wire      1 I!   RN_di  $end
$var wire      1 E"   RN_d  $end
$var wire      1 K!   CP_d  $end
$var wire      1 F"   nextstate  $end
$var wire      1 G"   IQ  $end
$var wire      1 H"   IQN  $end
$var wire      1 R    D_d  $end
$var wire      1 I"   id_11  $end
$var wire      1 J"   xid_11  $end
$upscope $end


$scope module g282 $end
$var wire      1 O    A  $end
$var wire      1 1    B  $end
$var wire      1 Q    CO  $end
$var wire      1 R    SUM  $end
$var wire      1 K"   i_370  $end
$var wire      1 L"   i_372  $end
$var wire      1 M"   i_371  $end
$var wire      1 N"   i_373  $end
$upscope $end


$scope module \divider_reg[5]  $end
$var wire      1 P    D  $end
$var wire      1 "    RN  $end
$var wire      1 !    CP  $end
$var wire      1 (    Q  $end
$var wire      1 A    QN  $end
$var reg       1 O"   NOTIFIER  $end
$var wire      1 I!   RN_di  $end
$var wire      1 P"   RN_d  $end
$var wire      1 K!   CP_d  $end
$var wire      1 Q"   nextstate  $end
$var wire      1 R"   IQ  $end
$var wire      1 S"   IQN  $end
$var wire      1 P    D_d  $end
$var wire      1 T"   id_61  $end
$var wire      1 U"   xid_61  $end
$upscope $end


$scope module g284 $end
$var wire      1 M    A  $end
$var wire      1 (    B  $end
$var wire      1 O    CO  $end
$var wire      1 P    SUM  $end
$var wire      1 V"   i_370  $end
$var wire      1 W"   i_372  $end
$var wire      1 X"   i_371  $end
$var wire      1 Y"   i_373  $end
$upscope $end


$scope module \divider_reg[4]  $end
$var wire      1 N    D  $end
$var wire      1 "    RN  $end
$var wire      1 !    CP  $end
$var wire      1 3    Q  $end
$var wire      1 B    QN  $end
$var reg       1 Z"   NOTIFIER  $end
$var wire      1 I!   RN_di  $end
$var wire      1 ["   RN_d  $end
$var wire      1 K!   CP_d  $end
$var wire      1 \"   nextstate  $end
$var wire      1 ]"   IQ  $end
$var wire      1 ^"   IQN  $end
$var wire      1 N    D_d  $end
$var wire      1 _"   id_11  $end
$var wire      1 `"   xid_11  $end
$upscope $end


$scope module g286 $end
$var wire      1 K    A  $end
$var wire      1 3    B  $end
$var wire      1 M    CO  $end
$var wire      1 N    SUM  $end
$var wire      1 a"   i_370  $end
$var wire      1 b"   i_372  $end
$var wire      1 c"   i_371  $end
$var wire      1 d"   i_373  $end
$upscope $end


$scope module \divider_reg[3]  $end
$var wire      1 L    D  $end
$var wire      1 "    RN  $end
$var wire      1 !    CP  $end
$var wire      1 4    Q  $end
$var wire      1 C    QN  $end
$var reg       1 e"   NOTIFIER  $end
$var wire      1 I!   RN_di  $end
$var wire      1 f"   RN_d  $end
$var wire      1 K!   CP_d  $end
$var wire      1 g"   nextstate  $end
$var wire      1 h"   IQ  $end
$var wire      1 i"   IQN  $end
$var wire      1 L    D_d  $end
$var wire      1 j"   id_11  $end
$var wire      1 k"   xid_11  $end
$upscope $end


$scope module g288 $end
$var wire      1 I    A  $end
$var wire      1 4    B  $end
$var wire      1 K    CO  $end
$var wire      1 L    SUM  $end
$var wire      1 l"   i_370  $end
$var wire      1 m"   i_372  $end
$var wire      1 n"   i_371  $end
$var wire      1 o"   i_373  $end
$upscope $end


$scope module \divider_reg[2]  $end
$var wire      1 J    D  $end
$var wire      1 "    RN  $end
$var wire      1 !    CP  $end
$var wire      1 5    Q  $end
$var wire      1 D    QN  $end
$var reg       1 p"   NOTIFIER  $end
$var wire      1 I!   RN_di  $end
$var wire      1 q"   RN_d  $end
$var wire      1 K!   CP_d  $end
$var wire      1 r"   nextstate  $end
$var wire      1 s"   IQ  $end
$var wire      1 t"   IQN  $end
$var wire      1 J    D_d  $end
$var wire      1 u"   id_11  $end
$var wire      1 v"   xid_11  $end
$upscope $end


$scope module g290 $end
$var wire      1 G    A  $end
$var wire      1 5    B  $end
$var wire      1 I    CO  $end
$var wire      1 J    SUM  $end
$var wire      1 w"   i_370  $end
$var wire      1 x"   i_372  $end
$var wire      1 y"   i_371  $end
$var wire      1 z"   i_373  $end
$upscope $end


$scope module \divider_reg[1]  $end
$var wire      1 H    D  $end
$var wire      1 "    RN  $end
$var wire      1 !    CP  $end
$var wire      1 6    Q  $end
$var wire      1 E    QN  $end
$var reg       1 {"   NOTIFIER  $end
$var wire      1 I!   RN_di  $end
$var wire      1 |"   RN_d  $end
$var wire      1 K!   CP_d  $end
$var wire      1 }"   nextstate  $end
$var wire      1 ~"   IQ  $end
$var wire      1 !#   IQN  $end
$var wire      1 H    D_d  $end
$var wire      1 "#   id_11  $end
$var wire      1 ##   xid_11  $end
$upscope $end


$scope module g292 $end
$var wire      1 7    A  $end
$var wire      1 6    B  $end
$var wire      1 G    CO  $end
$var wire      1 H    SUM  $end
$var wire      1 $#   i_370  $end
$var wire      1 %#   i_372  $end
$var wire      1 &#   i_371  $end
$var wire      1 '#   i_373  $end
$upscope $end


$scope module \divider_reg[0]  $end
$var wire      1 F    D  $end
$var wire      1 "    RN  $end
$var wire      1 !    CP  $end
$var wire      1 7    Q  $end
$var wire      1 F    QN  $end
$var reg       1 (#   NOTIFIER  $end
$var wire      1 I!   RN_di  $end
$var wire      1 )#   RN_d  $end
$var wire      1 K!   CP_d  $end
$var wire      1 *#   nextstate  $end
$var wire      1 +#   IQ  $end
$var wire      1 ,#   IQN  $end
$var wire      1 F    D_d  $end
$var wire      1 -#   id_11  $end
$var wire      1 .#   xid_11  $end
$upscope $end

$upscope $end

$upscope $end

$enddefinitions $end
$dumpvars
0!
x"
x#
x$
x%
x&
x'
x(
x)
x*
x+
x,
x-
x.
x/
x0
x1
z2
x3
x4
x5
x6
x7
x8
x9
x:
x;
x<
x=
x>
x?
x@
xA
xB
xC
xD
xE
xF
xG
xH
xI
xJ
xK
xL
xM
xN
xO
xP
xQ
xR
xS
xT
xU
xV
xW
xX
xY
xZ
x[
x\
x]
x^
x_
x`
xa
xb
xc
xd
xe
xf
xg
xh
xi
xj
xk
xl
xm
xn
xo
xp
xq
xr
xs
xt
xu
xv
xw
xx
xy
xz
x{
x|
x}
x~
x!!
x"!
x#!
x$!
x%!
x&!
x'!
x(!
x)!
x*!
x+!
x,!
x-!
x.!
x/!
x0!
x1!
x2!
x3!
x4!
x5!
x6!
x7!
x8!
x9!
x:!
x;!
x<!
x=!
x>!
x?!
x@!
xA!
xB!
xC!
xD!
xE!
xF!
xG!
xH!
xI!
xJ!
0K!
xL!
xM!
xN!
xO!
1P!
xQ!
xR!
xS!
xT!
xU!
xV!
xW!
xX!
xY!
xZ!
1[!
x\!
x]!
x^!
x_!
x`!
xa!
xb!
xc!
xd!
xe!
1f!
xg!
xh!
xi!
xj!
xk!
xl!
xm!
xn!
xo!
xp!
1q!
xr!
xs!
xt!
xu!
xv!
xw!
xx!
xy!
xz!
x{!
1|!
x}!
x~!
x!"
x""
x#"
x$"
x%"
x&"
x'"
x("
1)"
x*"
x+"
x,"
x-"
x."
x/"
x0"
x1"
x2"
x3"
14"
x5"
x6"
x7"
x8"
x9"
x:"
x;"
x<"
x="
x>"
1?"
x@"
xA"
xB"
xC"
xD"
xE"
xF"
xG"
xH"
xI"
1J"
xK"
xL"
xM"
xN"
xO"
xP"
xQ"
xR"
xS"
xT"
1U"
xV"
xW"
xX"
xY"
xZ"
x["
x\"
x]"
x^"
x_"
1`"
xa"
xb"
xc"
xd"
xe"
xf"
xg"
xh"
xi"
xj"
1k"
xl"
xm"
xn"
xo"
xp"
xq"
xr"
xs"
xt"
xu"
1v"
xw"
xx"
xy"
xz"
x{"
x|"
x}"
x~"
x!#
x"#
1##
x$#
x%#
x&#
x'#
x(#
x)#
x*#
x+#
x,#
x-#
1.#
$end
#2000
0"
0#
0$
0%
1&
0@!
0?!
00!
0/!
0,!
0+!
1(!
0G!
0E!
0F!
1D!
0B!
1<!
0:!
18!
06!
14!
02!
1w
0u
0I!
0J!
0V!
0a!
0l!
0w!
0$"
0/"
0:"
0E"
0P"
0["
0f"
0q"
0|"
0)#
0+#
0-#
0.#
0~"
0"#
0##
0s"
0u"
0v"
0h"
0j"
0k"
0]"
0_"
0`"
0R"
0T"
0U"
0G"
0I"
0J"
0<"
0>"
0?"
01"
03"
04"
0&"
0("
0)"
0y!
0{!
0|!
0n!
0p!
0q!
0c!
0e!
0f!
0X!
0Z!
0[!
0M!
0O!
0P!
1N!
1Y!
1d!
1o!
1z!
1'"
12"
1="
1H"
1S"
1^"
1i"
1t"
1!#
1,#
1F
1E
1D
1C
1B
1A
1@
1?
1>
1=
1<
1;
1:
19
18
0)
0*
0+
0,
0-
0.
0/
00
01
0(
03
04
05
06
07
1e
1g
1d
0b
1c
1!!
1z
1$!
1~
0'!
0&!
0%!
0'#
0&#
1%#
1$#
0y"
0n"
0c"
0>!
0=!
0X"
0C!
0A!
0M"
07!
05!
0B"
07"
0.!
0-!
0,"
0!"
0t!
0i!
0*!
0)!
0^!
03!
01!
0S!
0;!
09!
1*#
1k
1m
1o
1n
1l
1i
1j
0H
1p
1h
0f
0G
0I
0K
0M
0O
0Q
0S
0U
0W
0Y
0[
0]
0_
0T!
1R!
1Q!
0_!
1]!
1\!
0j!
1h!
1g!
0u!
1s!
1r!
0""
1~!
1}!
0-"
1+"
1*"
08"
16"
15"
0C"
1A"
1@"
0N"
1L"
1K"
0Y"
1W"
1V"
0d"
1b"
1a"
0o"
1m"
1l"
0z"
1x"
1w"
0}"
1#!
1}
1|
1"!
1r
1q
0J
0L
0N
0P
0R
0T
0V
0X
0Z
0\
0^
0`
0a
0L!
0W!
0b!
0m!
0x!
0%"
00"
0;"
0F"
0Q"
0\"
0g"
0r"
1y
1x
1{
0s
0t
0v
0'
#5000
1!
1K!
#6000
1"
1I!
1J!
1V!
1a!
1l!
1w!
1$"
1/"
1:"
1E"
1P"
1["
1f"
1q"
1|"
1)#
1-#
1.#
1"#
1##
1u"
1v"
1j"
1k"
1_"
1`"
1T"
1U"
1I"
1J"
1>"
1?"
13"
14"
1("
1)"
1{!
1|!
1p!
1q!
1e!
1f!
1Z!
1[!
1O!
1P!
#10000
0!
0K!
#15000
1!
1K!
1+#
0,#
#15100
0F
17
1'#
0%#
0$#
1'!
1&!
1%!
0*#
0p
1H
1}"
0x
1t
1v
1'
#20000
0!
0K!
#25000
1!
1K!
0+#
1~"
0!#
1,#
#25100
1F
0E
16
07
0'!
0&!
0%!
1C!
1A!
1*#
0i
1p
1x
0t
0v
0'
#30000
0!
0K!
#35000
1!
1K!
1+#
0,#
#35100
0F
17
1&#
1$#
1'!
1&!
1%!
0*#
0p
0H
1G
1z"
0x"
0w"
0}"
0x
1t
1J
1r"
1v
1'
#40000
0!
0K!
#45000
1!
1K!
0+#
0~"
1s"
0t"
1!#
1,#
#45100
1F
1E
0D
15
06
07
0'!
0&!
0%!
0'#
0&#
1%#
0C!
0A!
1y"
1w"
17!
15!
1*#
0l
0J
1i
1p
0G
1I
1o"
0m"
0l"
0y"
0w"
0r"
1x
0t
1J
1L
0I
0o"
1m"
1l"
1g"
1r"
0v
0'
0L
0g"
#50000
0!
0K!
#55000
1!
1K!
1+#
0,#
#55100
0F
17
1'#
0%#
0$#
1'!
1&!
1%!
0*#
0p
1H
1}"
0x
1t
1v
1'
#60000
0!
0K!
#65000
1!
1K!
0+#
1~"
0!#
1,#
#65100
1F
0E
16
07
0'!
0&!
0%!
1C!
1A!
1*#
0i
1p
1x
0t
0v
0'
#70000
0!
0K!
#75000
1!
1K!
1+#
0,#
#75100
0F
17
1&#
1$#
1'!
1&!
1%!
0*#
0p
0H
1G
1y"
1w"
0}"
0x
1t
0J
1I
1o"
0m"
0l"
0r"
1v
1'
1L
1g"
#80000
0!
0K!
#85000
1!
1K!
0+#
0~"
0s"
1h"
0i"
1t"
1!#
1,#
#85100
1F
1E
1D
0C
14
05
06
07
0'!
0&!
0%!
0'#
0&#
1%#
0C!
0A!
0y"
0w"
07!
05!
1n"
1l"
1*#
0L
1l
1J
1i
1p
0G
0I
1K
1d"
0b"
0a"
0n"
0l"
0z"
1x"
1w"
1r"
1x
0g"
0t
0J
1L
1N
0K
0d"
1b"
1a"
1\"
1g"
0r"
0v
0'
0N
0\"
#90000
0!
0K!
#95000
1!
1K!
1+#
0,#
#95100
0F
17
1'#
0%#
0$#
1'!
1&!
1%!
0*#
0p
1H
1}"
0x
1t
1v
1'
#100000
0!
0K!
#105000
1!
1K!
0+#
1~"
0!#
1,#
#105100
1F
0E
16
07
0'!
0&!
0%!
1C!
1A!
1*#
0i
1p
1x
0t
0v
0'
#106000
1$
1F!
0D!
0C!
0A!
0<!
08!
04!
1i
0e
0c
0h
1f
#110000
0!
0K!
#115000
1!
1K!
1+#
0,#
#115100
0F
17
1&#
1$#
1'!
1&!
0*#
0H
1G
1z"
0x"
0w"
0}"
1J
1r"
#120000
0!
0K!
#125000
1!
1K!
0+#
0~"
1s"
0t"
1!#
1,#
#125100
1F
1E
0D
15
06
07
0'!
0&!
0'#
0&#
1%#
1y"
1w"
1*#
0J
0G
1I
1n"
1l"
0y"
0w"
0r"
1J
0L
1K
0I
0n"
0l"
1d"
0b"
0a"
0g"
1r"
1N
1L
0K
0d"
1b"
1a"
1g"
1\"
0N
0\"
#130000
0!
0K!
#135000
1!
1K!
1+#
0,#
#135100
0F
17
1'#
0%#
0$#
1'!
1&!
0*#
1H
1}"
#140000
0!
0K!
#145000
1!
1K!
0+#
1~"
0!#
1,#
#145100
1F
0E
16
07
0'!
0&!
1*#
#150000
0!
0K!
#155000
1!
1K!
1+#
0,#
#155100
0F
17
1&#
1$#
1'!
1&!
0*#
0H
1G
1y"
1w"
0}"
0J
1I
1n"
1l"
0r"
0L
1K
1d"
0b"
0a"
0g"
1N
1\"
#160000
0!
0K!
#165000
1!
1K!
0+#
0~"
0s"
0h"
1]"
0^"
1i"
1t"
1!#
1,#
#165100
1F
1E
1D
1C
0B
13
04
05
06
07
0'!
0&!
0'#
0&#
1%#
0y"
0w"
0n"
0l"
1c"
1a"
1>!
1=!
1*#
0j
0N
1L
1J
0G
0I
0K
1M
1Y"
0W"
0V"
0c"
0a"
0o"
1m"
1l"
0z"
1x"
1w"
1r"
1g"
0\"
0#!
0q
0J
0L
1N
1P
0M
0Y"
1W"
1V"
1Q"
1\"
0g"
0r"
0y
0x
1t
0P
0Q"
1v
1'
#170000
0!
0K!
#175000
1!
1K!
1+#
0,#
#175100
0F
17
1'#
0%#
0$#
1'!
1&!
0*#
1H
1}"
#180000
0!
0K!
#185000
1!
1K!
0+#
1~"
0!#
1,#
#185100
1F
0E
16
07
0'!
0&!
1*#
#190000
0!
0K!
#195000
1!
1K!
1+#
0,#
#195100
0F
17
1&#
1$#
1'!
1&!
0*#
0H
1G
1z"
0x"
0w"
0}"
1J
1r"
#200000
0!
0K!
#205000
1!
1K!
0+#
0~"
1s"
0t"
1!#
1,#
#205100
1F
1E
0D
15
06
07
0'!
0&!
0'#
0&#
1%#
1y"
1w"
1*#
0J
0G
1I
1o"
0m"
0l"
0y"
0w"
0r"
1J
1L
0I
0o"
1m"
1l"
1g"
1r"
0L
0g"
#210000
0!
0K!
#215000
1!
1K!
1+#
0,#
#215100
0F
17
1'#
0%#
0$#
1'!
1&!
0*#
1H
1}"
