I2c/fpga/i2c_v1/i2c_v1.sim/sim_1/behav/I2C.vcd
$date
   Fri Nov 11 14:43:59 2016
$end
$version
  P.20131013
$end
$timescale
  1ps
$end
$scope module I2C_f_tb $end
$scope module my_top $end
$var wire 1 U SW0 $end
$var wire 1 T SW1 $end
$var wire 1 W SW2 $end
$var wire 1 X SW3 $end
$var wire 1 % ARDUINO_RESET $end
$var wire 1 & DIR_UP $end
$var wire 1 ' DIR_DOWN $end
$var wire 1 ( DIR_LEFT $end
$var wire 1 V SDA_out $end
$var wire 1 Y aux1 [7] $end
$var wire 1 Z aux1 [6] $end
$var wire 1 [ aux1 [5] $end
$var wire 1 \ aux1 [4] $end
$var wire 1 ] aux1 [3] $end
$var wire 1 ^ aux1 [2] $end
$var wire 1 _ aux1 [1] $end
$var wire 1 ` aux1 [0] $end
$var wire 1 a aux2 [7] $end
$var wire 1 b aux2 [6] $end
$var wire 1 c aux2 [5] $end
$var wire 1 d aux2 [4] $end
$var wire 1 e aux2 [3] $end
$var wire 1 f aux2 [2] $end
$var wire 1 g aux2 [1] $end
$var wire 1 h aux2 [0] $end
$var wire 1 i aux3 [7] $end
$var wire 1 j aux3 [6] $end
$var wire 1 k aux3 [5] $end
$var wire 1 l aux3 [4] $end
$var wire 1 m aux3 [3] $end
$var wire 1 n aux3 [2] $end
$var wire 1 o aux3 [1] $end
$var wire 1 p aux3 [0] $end
$var wire 1 q aux4 [7] $end
$var wire 1 r aux4 [6] $end
$var wire 1 s aux4 [5] $end
$var wire 1 t aux4 [4] $end
$var wire 1 u aux4 [3] $end
$var wire 1 v aux4 [2] $end
$var wire 1 w aux4 [1] $end
$var wire 1 x aux4 [0] $end
$var reg 1 J LED7 $end
$var reg 1 K LED6 $end
$var reg 1 L LED5 $end
$var reg 1 M LED4 $end
$var reg 1 N LED3 $end
$var reg 1 O LED2 $end
$var reg 1 P LED1 $end
$var reg 1 Q LED0 $end
$scope module tri_buf1 $end
$var wire 1 V in $end
$var wire 1 V enable $end
$var wire 1 T out $end
$upscope $end
$scope module my_I2C $end
$var wire 1 U SDA $end
$var wire 1 V SDAout $end
$var wire 1 W SCL $end
$var wire 1 X RSTN $end
$var wire 1 Y aux1 [7] $end
$var wire 1 Z aux1 [6] $end
$var wire 1 [ aux1 [5] $end
$var wire 1 \ aux1 [4] $end
$var wire 1 ] aux1 [3] $end
$var wire 1 ^ aux1 [2] $end
$var wire 1 _ aux1 [1] $end
$var wire 1 ` aux1 [0] $end
$var wire 1 a aux2 [7] $end
$var wire 1 b aux2 [6] $end
$var wire 1 c aux2 [5] $end
$var wire 1 d aux2 [4] $end
$var wire 1 e aux2 [3] $end
$var wire 1 f aux2 [2] $end
$var wire 1 g aux2 [1] $end
$var wire 1 h aux2 [0] $end
$var wire 1 i aux3 [7] $end
$var wire 1 j aux3 [6] $end
$var wire 1 k aux3 [5] $end
$var wire 1 l aux3 [4] $end
$var wire 1 m aux3 [3] $end
$var wire 1 n aux3 [2] $end
$var wire 1 o aux3 [1] $end
$var wire 1 p aux3 [0] $end
$var wire 1 q aux4 [7] $end
$var wire 1 r aux4 [6] $end
$var wire 1 s aux4 [5] $end
$var wire 1 t aux4 [4] $end
$var wire 1 u aux4 [3] $end
$var wire 1 v aux4 [2] $end
$var wire 1 w aux4 [1] $end
$var wire 1 x aux4 [0] $end
$var wire 1 y RST $end
$var wire 1 z start_rst $end
$var wire 1 { stop_rst $end
$var wire 1 | lsb_bit $end
$var wire 1 } ack_bit $end
$var wire 1 ~ address_detect $end
$var wire 1 !! read_write_bit $end
$var wire 1 "! write_strobe $end
$var reg 1 #! start_detect $end
$var reg 1 $! start_resetter $end
$var reg 1 %! stop_detect $end
$var reg 1 &! stop_resetter $end
$var reg 4 '! bit_counter [3:0] $end
$var reg 8 (! input_shift [7:0] $end
$var reg 1 )! master_ack $end
$var reg 3 *! state [2:0] $end
$var reg 8 +! index_pointer [7:0] $end
$var reg 8 ,! reg_00 [7:0] $end
$var reg 8 -! reg_01 [7:0] $end
$var reg 8 .! reg_02 [7:0] $end
$var reg 8 /! reg_03 [7:0] $end
$var reg 8 0! output_shift [7:0] $end
$var reg 1 1! output_control $end
$upscope $end
$upscope $end
$upscope $end
$enddefinitions $end
#0
$dumpvars
xJ
xK
xL
xM
xN
xO
xP
xQ
xV
x`
x_
x^
x]
x\
x[
xZ
xY
xh
xg
xf
xe
xd
xc
xb
xa
xp
xo
xn
xm
xl
xk
xj
xi
1W
xx
xw
xv
xu
xt
xs
xr
xq
x#!
x$!
1%!
x&!
bx '!
bx (!
x)!
bx *!
bx +!
bx ,!
bx -!
bx .!
bx /!
bx 0!
x1!
0y
xz
x{
x|
x}
x~
x!!
x"!
1U
1X
1&
xT
0%
z'
z(
$end
#20000
0J
0K
0L
0M
0N
0O
0P
0Q
1V
0`
0_
0^
0]
0\
0[
0Z
0Y
0h
0g
0f
0e
0d
0c
0b
0a
0p
0o
0n
0m
0l
0k
0j
0i
0x
0w
0v
0u
0t
0s
0r
0q
0#!
0$!
0%!
0&!
b0 *!
b0 +!
b0 ,!
b0 -!
b0 .!
b0 /!
11!
1y
1z
1{
0"!
0X
zT
#40000
0y
0z
0{
1X
#500000
1#!
0|
0}
0U
#600000
0W
b0 '!
b1 *!
bx0 0!
#620000
1U
#720000
1W
0#!
1$!
bx1 (!
1z
1!!
#820000
0W
b1 '!
bx00 0!
#840000
0U
#940000
1W
0$!
bx10 (!
0z
0!!
#1040000
0W
b10 '!
bx000 0!
#1060000
1U
#1160000
1W
bx101 (!
0~
1!!
#1260000
0W
b11 '!
bx0000 0!
#1280000
0U
#1380000
1W
bx1010 (!
x~
0!!
#1480000
0W
b100 '!
bx00000 0!
#1500000
1U
#1600000
1W
bx10101 (!
0~
1!!
#1700000
0W
b101 '!
bx000000 0!
#1720000
0U
#1820000
1W
bx101010 (!
x~
0!!
#1920000
0W
b110 '!
bx0000000 0!
#1940000
1U
#2040000
1W
bx1010101 (!
0~
1!!
#2140000
0W
b111 '!
b0 0!
1|
#2160000
0U
#2260000
1W
b10101010 (!
1~
0!!
#2360000
0V
0W
b1000 '!
01!
0|
1}
0T
#2460000
1W
1)!
#2560000
1V
0W
b0 '!
b11 *!
b1 +!
11!
0}
zT
#2680000
1W
b1010100 (!
0~
#2780000
0W
b1 '!
#2900000
1W
b10101000 (!
#3000000
0W
b10 '!
#3120000
1W
b1010000 (!
#3220000
0W
b11 '!
#3340000
1W
b10100000 (!
#3440000
0W
b100 '!
#3560000
1W
b1000000 (!
#3660000
0W
b101 '!
#3780000
1W
b10000000 (!
#3880000
0W
b110 '!
#4000000
1W
b0 (!
#4100000
0W
b111 '!
1|
#4120000
1U
#4220000
1W
b1 (!
1!!
#4320000
0V
0W
b1000 '!
01!
0|
1}
0T
#4420000
1W
0)!
#4520000
1V
0W
b0 '!
b100 *!
11!
0}
zT
#4640000
1W
b11 (!
#4740000
0W
b1 '!
#4860000
1W
b111 (!
#4960000
0W
b10 '!
#4980000
0U
#5080000
1W
b1110 (!
0!!
#5180000
0W
b11 '!
#5300000
1W
b11100 (!
#5400000
0W
b100 '!
#5420000
1U
#5520000
1W
b111001 (!
1!!
#5620000
0W
b101 '!
#5640000
0U
#5740000
1W
b1110010 (!
0!!
#5840000
0W
b110 '!
#5860000
1U
#5960000
1W
b11100101 (!
1!!
#6060000
0W
b111 '!
1|
#6080000
0U
#6180000
1W
b11001010 (!
0!!
#6280000
0V
0W
b1000 '!
01!
0|
1}
1"!
0T
#6380000
1W
1)!
#6480000
1J
1K
1N
1P
1V
1g
1e
1b
1a
0W
b0 '!
b10 +!
b11001010 -!
11!
0}
0"!
zT
#6600000
1W
b10010100 (!
#6700000
0W
b1 '!
#6820000
1W
b101000 (!
#6920000
0W
b10 '!
#6940000
1U
#7040000
1W
b1010001 (!
1!!
#7140000
0W
b11 '!
#7260000
1W
b10100011 (!
#7360000
0W
b100 '!
#7380000
0U
#7480000
1W
b1000110 (!
0!!
#7580000
0W
b101 '!
#7600000
1U
#7700000
1W
b10001101 (!
1!!
#7800000
0W
b110 '!
#7820000
0U
#7920000
1W
b11010 (!
0!!
#8020000
0W
b111 '!
1|
#8040000
1U
#8140000
1W
b110101 (!
1!!
#8240000
0V
0W
b1000 '!
01!
0|
1}
1"!
0T
#8340000
1W
0)!
#8440000
1V
1p
1n
1l
1k
0W
b0 '!
b11 +!
b110101 .!
11!
0}
0"!
zT
#8460000
0U
#8560000
1W
b1101010 (!
0!!
#8600000
1%!
1U
#9560000
1#!
0U
#9660000
0W
b1 *!
#9680000
0%!
1U
#9780000
1W
0#!
1$!
b11010101 (!
1z
1!!
#9880000
0W
b1 '!
#9900000
0U
#10000000
1W
0$!
b10101010 (!
0z
1~
0!!
#10100000
0W
b10 '!
#10120000
1U
#10220000
1W
b1010101 (!
0~
1!!
#10320000
0W
b11 '!
#10340000
0U
#10440000
1W
b10101010 (!
1~
0!!
#10540000
0W
b100 '!
#10560000
1U
#10660000
1W
b1010101 (!
0~
1!!
#10760000
0W
b101 '!
#10780000
0U
#10880000
1W
b10101010 (!
1~
0!!
#10980000
0W
b110 '!
#11000000
1U
#11100000
1W
b1010101 (!
0~
1!!
#11200000
0W
b111 '!
1|
#11220000
0U
#11320000
1W
b10101010 (!
1~
0!!
#11420000
0V
0W
b1000 '!
01!
0|
1}
0T
#11520000
1W
1)!
#11620000
1V
0W
b0 '!
b11 *!
b100 +!
11!
0}
zT
#11740000
1W
b1010100 (!
0~
#11840000
0W
b1 '!
#11960000
1W
b10101000 (!
#12060000
0W
b10 '!
#12180000
1W
b1010000 (!
#12280000
0W
b11 '!
#12400000
1W
b10100000 (!
#12500000
0W
b100 '!
#12620000
1W
b1000000 (!
#12720000
0W
b101 '!
#12840000
1W
b10000000 (!
#12940000
0W
b110 '!
#13060000
1W
b0 (!
#13160000
0W
b111 '!
1|
#13180000
1U
#13280000
1W
b1 (!
1!!
#13380000
0V
0W
b1000 '!
01!
0|
1}
0T
#13480000
1W
0)!
#13580000
1V
0W
b0 '!
b100 *!
b1 +!
11!
0}
zT
#13700000
1W
b11 (!
#13800000
1#!
0U
#13900000
0W
b1 *!
#13920000
1U
#14020000
1W
0#!
1$!
b111 (!
1z
#14120000
0W
b1 '!
#14140000
0U
#14240000
1W
0$!
b1110 (!
0z
0!!
#14340000
0W
b10 '!
#14360000
1U
#14460000
1W
b11101 (!
1!!
#14560000
0W
b11 '!
#14580000
0U
#14680000
1W
b111010 (!
0!!
#14780000
0W
b100 '!
#14800000
1U
#14900000
1W
b1110101 (!
1!!
#15000000
0W
b101 '!
#15020000
0U
#15120000
1W
b11101010 (!
0!!
#15220000
0W
b110 '!
#15240000
1U
#15340000
1W
b11010101 (!
1!!
#15440000
0W
b111 '!
1|
#15560000
1W
b10101011 (!
1~
#15660000
0V
0W
b1000 '!
b11001010 0!
01!
0|
1}
0T
#15760000
1W
#15860000
1V
0W
b0 '!
b10 *!
b10 +!
b10010100 0!
11!
0}
zT
#15960000
1W
b1010111 (!
0~
#16060000
0W
b1 '!
b101000 0!
#16160000
1W
b10101111 (!
#16260000
0V
0W
b10 '!
b1010000 0!
01!
0T
#16360000
1W
b1011111 (!
#16460000
0W
b11 '!
b10100000 0!
#16560000
1W
b10111111 (!
#16660000
1V
0W
b100 '!
b1000000 0!
11!
zT
#16760000
1W
b1111111 (!
#16860000
0V
0W
b101 '!
b10000000 0!
01!
0T
#16960000
1W
b11111111 (!
#17060000
1V
0W
b110 '!
b0 0!
11!
zT
#17160000
1W
#17260000
0V
0W
b111 '!
01!
1|
0T
#17360000
1W
#17460000
1V
0W
b1000 '!
b110101 0!
11!
0|
1}
zT
#17580000
1W
#17680000
0W
b0 '!
b0 *!
b11 +!
b1101010 0!
0}
#17700000
0U
#17800000
1W
b11111110 (!
0!!
#17840000
1%!
1U
